Division,WeightClassKg,Place,Name,Team,BodyweightKg,Best3SquatKg,Best3BenchKg,Best3DeadliftKg,TotalKg,Equipment,Event,Sex
Boys,51.71,1,Darius Rivera,Princeton,50.35,115.67,61.23,149.69,326.59,Single-ply,SBD,M
Boys,51.71,2,Jonathan Esquivel,Melissa,49.62,117.93,63.5,111.13,292.57,Single-ply,SBD,M
Boys,55.79,3,Jacob Kemp,Bonham,51.89,111.13,54.43,124.74,290.3,Single-ply,SBD,M
Boys,51.71,4,Zack Miller,Ponder,51.71,104.33,52.16,120.2,276.69,Single-ply,SBD,M
Boys,51.71,5,Matthew Palmer,Bonham,50.26,88.45,61.23,122.47,272.16,Single-ply,SBD,M
Boys,51.71,6,Kenieth Dodson,Pottsboro,47.63,106.59,56.7,95.25,258.55,Single-ply,SBD,M
Boys,55.79,7,Bailey Henderson,Whitewright,51.89,97.52,49.9,99.79,247.21,Single-ply,SBD,M
Boys,51.71,8,Austin Caldwell,Callisburg,51.07,90.72,43.09,104.33,238.14,Single-ply,SBD,M
Boys,51.71,9,Roy Riggins,Van Alstyne,51.44,83.91,52.16,79.38,215.46,Single-ply,SBD,M
Boys,51.71,10,Peyton Raymer,Blue Ridge,46.18,68.04,36.29,77.11,181.44,Single-ply,SBD,M
Boys,51.71,11,Justin Bilbrey,Howe,51.71,56.7,52.16,65.77,174.63,Single-ply,SBD,M
Boys,51.71,12,Dalton Oliver,Howe,51.71,49.9,40.82,49.9,140.61,Single-ply,SBD,M
Boys,51.71,DQ,Ervin Partridge,Bowie,50.35,,,,,Single-ply,SBD,M
Boys,51.71,DQ,Garrison Burkins,Princeton,44.81,,,,,Single-ply,SBD,M
Boys,55.79,DQ,Odi Carbajal,Sherman,51.89,,,,,Single-ply,SBD,M
Boys,59.87,1,Romario Hernandez,Krum,55.97,124.74,61.23,133.81,319.78,Single-ply,SBD,M
Boys,55.79,2,Coleman Chance,Ponder,55.25,120.2,61.23,120.2,301.64,Single-ply,SBD,M
Boys,55.79,3,Koby Parker,Pottsboro,55.52,111.13,77.11,108.86,297.1,Single-ply,SBD,M
Boys,55.79,4,Justin Keeton,Anna,55.7,99.79,56.7,117.93,274.42,Single-ply,SBD,M
Boys,55.79,5,Chase Lueke,Lucas Lovejoy,54.7,81.65,61.23,127.01,269.89,Single-ply,SBD,M
Boys,55.79,6,Evan Howard,Tom Bean,53.52,102.06,52.16,90.72,244.94,Single-ply,SBD,M
Boys,55.79,7,Nick Tarango,Lucas Lovejoy,53.71,86.18,36.29,99.79,222.26,Single-ply,SBD,M
Boys,55.79,DQ,Perrin Hughes,Ponder,53.52,102.06,,,,Single-ply,SBD,M
Boys,59.87,1,Stephen Nelson,Pottsboro,59.69,165.56,88.45,172.37,426.38,Single-ply,SBD,M
Boys,67.13,2,Chance Willits,Howe,60.01,156.49,83.91,170.1,410.5,Single-ply,SBD,M
Boys,67.13,3,Josh Fleming,Sherman,60.06,163.29,86.18,151.95,401.43,Single-ply,SBD,M
Boys,59.87,4,Grey Berry,Whitewright,59.6,165.56,79.38,154.22,399.16,Single-ply,SBD,M
Boys,59.87,5,Stephen Steele,Pottsboro,59.87,145.15,79.38,154.22,378.75,Single-ply,SBD,M
Boys,59.87,6,Spencer Tilley,Pilot Point,59.24,142.88,83.91,149.69,376.48,Single-ply,SBD,M
Boys,67.13,7,Roque Rivas,Bowie,59.96,145.15,86.18,145.15,376.48,Single-ply,SBD,M
Boys,59.87,8,Michael Vest,Celina,58.88,149.69,72.57,142.88,365.14,Single-ply,SBD,M
Boys,59.87,9,Jonathan Juarez,Celina,57.7,129.27,68.04,158.76,356.07,Single-ply,SBD,M
Boys,59.87,10,Kyle Rhinehart,Celina,59.51,142.88,70.31,138.35,351.53,Single-ply,SBD,M
Boys,59.87,11,Trevor Agan,Blue Ridge,56.06,117.93,63.5,136.08,317.51,Single-ply,SBD,M
Boys,59.87,12,Ian Concepcion,Krum,57.15,108.86,58.97,136.08,303.91,Single-ply,SBD,M
Boys,59.87,13,Callahan Storey,Paradise,57.52,97.52,61.23,113.4,272.16,Single-ply,SBD,M
Boys,59.87,14,Adam Kennedy,Ponder,59.78,95.25,52.16,120.2,267.62,Single-ply,SBD,M
Boys,59.87,15,Cameron Glover,Whitewright,56.34,102.06,58.97,92.99,254.01,Single-ply,SBD,M
Boys,59.87,16,David Bowling,Blue Ridge,58.51,81.65,58.97,97.52,238.14,Single-ply,SBD,M
Boys,59.87,DQ,Jake Vest,Blue Ridge,58.24,113.4,,,,Single-ply,SBD,M
Boys,59.87,DQ,Brandon Gee,Ponder,56.79,136.08,77.11,,,Single-ply,SBD,M
Boys,59.87,DQ,Drustin Davis,Whitewright,58.15,115.67,,,,Single-ply,SBD,M
Boys,67.13,1,Garrett Syfert,Pottsboro,65.5,208.65,99.79,185.97,494.42,Single-ply,SBD,M
Boys,67.13,2,Jeremy Croney,Sadler S & S Cons,66.68,188.24,102.06,165.56,455.86,Single-ply,SBD,M
Boys,67.13,3,Luke Parrish,Tom Bean,63.32,165.56,102.06,163.29,430.91,Single-ply,SBD,M
Boys,67.13,4,Willie Winborne,Sadler S & S Cons,67.04,158.76,90.72,165.56,415.04,Single-ply,SBD,M
Boys,67.13,5,Kelton Dethloff,Paradise,66.41,170.1,81.65,158.76,410.5,Single-ply,SBD,M
Boys,67.13,6,Chase Reynolds,Paradise,63.78,145.15,95.25,154.22,394.63,Single-ply,SBD,M
Boys,67.13,7,Jarrell Washington,Leonard,66.41,147.42,83.91,158.76,390.09,Single-ply,SBD,M
Boys,67.13,8,Aaron Decker,Whitewright,64.5,136.08,88.45,151.95,376.48,Single-ply,SBD,M
Boys,67.13,9,Mason Thompson,Whitewright,62.96,154.22,79.38,140.61,374.21,Single-ply,SBD,M
Boys,67.13,10,Savon Miles,Princeton,63.68,142.88,77.11,151.95,371.95,Single-ply,SBD,M
Boys,67.13,11,Ryan Hughes #5,Ponder,65.23,129.27,72.57,158.76,360.61,Single-ply,SBD,M
Boys,74.84,12,Chris Rhinehart,Celina,67.31,133.81,65.77,154.22,353.8,Single-ply,SBD,M
Boys,67.13,13,Justin Lawrence,Bonham,64.68,127.01,70.31,145.15,342.46,Single-ply,SBD,M
Boys,67.13,14,Jarrett Wilson,Pilot Point,65.32,124.74,95.25,115.67,335.66,Single-ply,SBD,M
Boys,67.13,15,Matthew Jelen,Krum,66.68,120.2,72.57,133.81,326.59,Single-ply,SBD,M
Boys,67.13,16,Danny Nunez,Blue Ridge,66.41,111.13,63.5,147.42,322.05,Single-ply,SBD,M
Boys,67.13,17,Alex Garcia,Callisburg,66.22,106.59,61.23,131.54,299.37,Single-ply,SBD,M
Boys,67.13,18,Cody Branham,Bells,66.32,113.4,68.04,117.93,299.37,Single-ply,SBD,M
Boys,67.13,19,Mike Kemp,Callisburg,66.86,92.99,58.97,124.74,276.69,Single-ply,SBD,M
Boys,67.13,DQ,Zach Remily,Bowie,61.96,176.9,,,,Single-ply,SBD,M
Boys,67.13,DQ,Chris Stephens,Sherman,63.96,156.49,,,,Single-ply,SBD,M
Boys,67.13,DQ,Alex Enriquez,Sherman,61.78,,,,,Single-ply,SBD,M
Boys,67.13,DQ,Dustin Louth,Princeton,61.78,,,,,Single-ply,SBD,M
Boys,74.84,1,James Jackson,Callisburg,72.94,181.44,113.4,215.46,510.29,Single-ply,SBD,M
Boys,74.84,2,Sebastian Spencer,Anna,68.22,188.24,113.4,176.9,478.54,Single-ply,SBD,M
Boys,74.84,3,Halston Delgado,Decatur,71.85,181.44,104.33,183.7,469.47,Single-ply,SBD,M
Boys,74.84,4,Tyler Bailey,Lucas Lovejoy,74.39,176.9,104.33,188.24,469.47,Single-ply,SBD,M
Boys,82.1,5,Dustin Richards,Krum,75.02,174.63,92.99,197.31,464.93,Single-ply,SBD,M
Boys,74.84,6,Jelani Howell,Sherman,69.49,170.1,104.33,188.24,462.66,Single-ply,SBD,M
Boys,74.84,7,Treylon Taylor,Sherman,72.85,165.56,99.79,170.1,435.45,Single-ply,SBD,M
Boys,74.84,8,Brian Hesson,Lucas Lovejoy,68.58,158.76,90.72,183.7,433.18,Single-ply,SBD,M
Boys,74.84,9,Taylor Littleton,Ponder,70.4,165.56,104.33,158.76,428.64,Single-ply,SBD,M
Boys,74.84,10,Hayden Brown,Paradise,72.76,183.7,74.84,163.29,421.84,Single-ply,SBD,M
Boys,74.84,11,Kenny Watson,Whitewright,70.31,156.49,106.59,156.49,419.57,Single-ply,SBD,M
Boys,74.84,12,Andrew Smith,Anna,71.03,147.42,83.91,163.29,394.63,Single-ply,SBD,M
Boys,74.84,13,Collin Skaggs,Callisburg,70.03,147.42,77.11,140.61,365.14,Single-ply,SBD,M
Boys,74.84,14,Dakota Burchfield,Van Alstyne,71.03,129.27,95.25,136.08,360.61,Single-ply,SBD,M
Boys,74.84,15,Ryan Bridges,Bells,72.3,131.54,86.18,140.61,358.34,Single-ply,SBD,M
Boys,74.84,16,Austin Garcia,Paradise,71.3,133.81,74.84,147.42,356.07,Single-ply,SBD,M
Boys,74.84,17,Garrison Moore,Melissa,72.67,129.27,77.11,136.08,342.46,Single-ply,SBD,M
Boys,74.84,18,Chase Pinion,Anna,71.94,124.74,79.38,136.08,340.19,Single-ply,SBD,M
Boys,74.84,19,Dalton Scott,Pilot Point,74.21,113.4,61.23,124.74,299.37,Single-ply,SBD,M
Boys,74.84,20,Phillip Heintze,Whitewright,71.3,106.59,65.77,120.2,292.57,Single-ply,SBD,M
Boys,74.84,DQ,Craig Wood,Whitewright,74.21,,,,,Single-ply,SBD,M
Boys,74.84,DQ,Logan Marchman,Ponder,67.95,,,,,Single-ply,SBD,M
Boys,74.84,DQ,Isaac Olvera,Anna,73.03,,,,,Single-ply,SBD,M
Boys,74.84,DQ,Korey Sanchez,Anna,69.4,129.27,77.11,,,Single-ply,SBD,M
Boys,82.1,1,Jesus Vargas,Celina,79.74,226.8,142.88,229.06,598.74,Single-ply,SBD,M
Boys,82.1,2,Marcus Vera,Howe,80.01,226.8,120.2,201.85,548.85,Single-ply,SBD,M
Boys,82.1,3,ShaCody Williams,Sherman,76.2,199.58,129.27,213.19,542.04,Single-ply,SBD,M
Boys,82.1,4,Dustin Williams,Anna,79.38,204.12,127.01,192.78,523.9,Single-ply,SBD,M
Boys,82.1,5,Dru Hull,Sadler S & S Cons,76.66,204.12,127.01,190.51,521.63,Single-ply,SBD,M
Boys,82.1,6,Anthony Garcia,Celina,82.1,195.04,108.86,215.46,519.36,Single-ply,SBD,M
Boys,82.1,7,Robert Maples,Pilot Point,76.38,185.97,102.06,219.99,508.02,Single-ply,SBD,M
Boys,82.1,8,Blake Haney,Decatur,80.29,185.97,113.4,206.38,505.76,Single-ply,SBD,M
Boys,82.1,9,Cameron Williams,Sherman,75.48,188.24,104.33,210.92,503.49,Single-ply,SBD,M
Boys,82.1,10,Bobby Byrd,Decatur,77.56,208.65,113.4,181.44,503.49,Single-ply,SBD,M
Boys,82.1,11,Justin Jones,Princeton,77.93,195.04,106.59,195.04,496.68,Single-ply,SBD,M
Boys,82.1,12,Cody Jones,Ponder,75.57,183.7,97.52,204.12,485.34,Single-ply,SBD,M
Boys,82.1,13,Kyle Patterson,Ponder,80.56,204.12,117.93,151.95,474,Single-ply,SBD,M
Boys,89.81,14,Jeffery McClinton,Callisburg,82.28,174.63,95.25,197.31,467.2,Single-ply,SBD,M
Boys,82.1,15,Nate Falk,Lucas Lovejoy,81.19,183.7,83.91,181.44,449.06,Single-ply,SBD,M
Boys,82.1,16,Justin Haggard,Bonham,78.29,170.1,97.52,179.17,446.79,Single-ply,SBD,M
Boys,89.81,17,Austin Gaddis,Bells,82.28,161.03,104.33,167.83,433.18,Single-ply,SBD,M
Boys,82.1,18,Luis Erives,Sadler S & S Cons,77.29,154.22,90.72,183.7,428.64,Single-ply,SBD,M
Boys,82.1,19,Garrett Lansford,Anna,81.28,163.29,95.25,167.83,426.38,Single-ply,SBD,M
Boys,82.1,20,Blaine Eberts,Pilot Point,79.65,151.95,86.18,170.1,408.23,Single-ply,SBD,M
Boys,82.1,21,Jacob Olivarez,Krum,75.75,170.1,77.11,147.42,394.63,Single-ply,SBD,M
Boys,82.1,22,Steven Rios,Princeton,81.92,149.69,83.91,140.61,374.21,Single-ply,SBD,M
Boys,89.81,23,Shawn Shugart,Callisburg,82.28,149.69,72.57,149.69,371.95,Single-ply,SBD,M
Boys,89.81,DQ,Stryker Hunnicutt,Bonham,82.19,,,,,Single-ply,SBD,M
Boys,82.1,DQ,Nick Liccione,Howe,79.29,90.72,,,,Single-ply,SBD,M
Boys,82.1,DQ,Peyton Betts,Bowie,79.56,179.17,,,,Single-ply,SBD,M
Boys,82.1,DQ,Tyler Clemens,Van Alstyne,79.56,156.49,,,,Single-ply,SBD,M
Boys,89.81,1,Cameron Litzkow,Van Alstyne,88.27,215.46,120.2,210.92,546.58,Single-ply,SBD,M
Boys,89.81,2,Dj Fields,Bonham,89.36,226.8,127.01,192.78,546.58,Single-ply,SBD,M
Boys,89.81,3,Tyler Cobb,Paradise,83.19,197.31,113.4,210.92,521.63,Single-ply,SBD,M
Boys,89.81,4,Casey Davis,Howe,89.04,188.24,129.27,197.31,514.83,Single-ply,SBD,M
Boys,89.81,5,Dylan House,Pottsboro,88,204.12,97.52,204.12,505.76,Single-ply,SBD,M
Boys,89.81,6,Slayton Shiels,Lucas Lovejoy,89.54,195.04,108.86,192.78,496.68,Single-ply,SBD,M
Boys,89.81,7,Harrison Flinn,Pottsboro,82.37,174.63,108.86,201.85,485.34,Single-ply,SBD,M
Boys,89.81,8,Cody Morrison,Callisburg,84.28,183.7,97.52,204.12,485.34,Single-ply,SBD,M
Boys,89.81,9,Grant McLean,Bells,88.27,181.44,108.86,181.44,471.74,Single-ply,SBD,M
Boys,89.81,10,Chance Bratcher,Sadler S & S Cons,82.64,185.97,104.33,165.56,455.86,Single-ply,SBD,M
Boys,99.79,11,Dawson Stewart,Howe,89.99,167.83,97.52,183.7,449.06,Single-ply,SBD,M
Boys,89.81,12,Ekson Hernandez,Sadler S & S Cons,86.18,167.83,77.11,190.51,435.45,Single-ply,SBD,M
Boys,89.81,13,Ty Laird,Krum,88.36,145.15,90.72,158.76,394.63,Single-ply,SBD,M
Boys,89.81,14,Oscar Rios,Bonham,85.55,142.88,79.38,170.1,392.36,Single-ply,SBD,M
Boys,89.81,15,Jd Patterson,Howe,87.82,136.08,72.57,122.47,331.12,Single-ply,SBD,M
Boys,89.81,DQ,Shelby Long,Anna,85.28,217.72,111.13,,,Single-ply,SBD,M
Boys,89.81,DQ,Trenton Williams,Princeton,85.64,172.37,,,,Single-ply,SBD,M
Boys,89.81,DQ,Ramon Ramirez,Princeton,86.36,149.69,,,,Single-ply,SBD,M
Boys,99.79,1,Eduardo Webber,Howe,92.62,272.16,145.15,208.65,625.96,Single-ply,SBD,M
Boys,99.79,2,Taylor Davis,Princeton,99.25,204.12,120.2,195.04,519.36,Single-ply,SBD,M
Boys,99.79,3,Tory Ferryman,Ponder,93.17,210.92,108.86,195.04,514.83,Single-ply,SBD,M
Boys,99.79,4,Chrystian Molina,Lucas Lovejoy,97.07,195.04,102.06,204.12,501.22,Single-ply,SBD,M
Boys,99.79,5,Dj Hollis,Melissa,90.99,174.63,124.74,179.17,478.54,Single-ply,SBD,M
Boys,99.79,6,Cj Bryant,Princeton,91.53,188.24,106.59,176.9,471.74,Single-ply,SBD,M
Boys,99.79,7,Thomas Schwab,Lucas Lovejoy,99.34,174.63,106.59,190.51,471.74,Single-ply,SBD,M
Boys,99.79,8,Cole Selby,Decatur,94.44,181.44,104.33,181.44,467.2,Single-ply,SBD,M
Boys,99.79,9,Dakota Covington,Callisburg,93.53,163.29,108.86,181.44,453.59,Single-ply,SBD,M
Boys,99.79,10,Esteban Martinez,Krum,99.34,174.63,90.72,188.24,453.59,Single-ply,SBD,M
Boys,99.79,11,Jeff Sanborn,Callisburg,99.52,145.15,92.99,195.04,433.18,Single-ply,SBD,M
Boys,99.79,12,Jd Poe,Lucas Lovejoy,91.17,156.49,90.72,158.76,405.97,Single-ply,SBD,M
Boys,99.79,13,Ryan Montgomery,Whitewright,90.36,111.13,72.57,136.08,319.78,Single-ply,SBD,M
Boys,99.79,DQ,Zach Woodruff,Paradise,91.26,,,,,Single-ply,SBD,M
Boys,99.79,DQ,Hunter Conley,Pottsboro,99.61,174.63,108.86,,,Single-ply,SBD,M
Boys,99.79,DQ,Dylan Cleveland,Pottsboro,99.34,167.83,90.72,,,Single-ply,SBD,M
Boys,99.79,DQ,Shane Tilden,Krum,95.71,142.88,97.52,,,Single-ply,SBD,M
Boys,99.79,DQ,Tj May,Bowie,94.35,,,,,Single-ply,SBD,M
Boys,109.77,1,Robert Gay,Sherman,101.06,249.48,127.01,244.94,621.42,Single-ply,SBD,M
Boys,109.77,2,Hiram Muhammed,Lucas Lovejoy,108.95,199.58,129.27,249.48,578.33,Single-ply,SBD,M
Boys,109.77,3,Brad Shatto,Sadler S & S Cons,107.95,231.33,136.08,188.24,555.65,Single-ply,SBD,M
Boys,109.77,4,Javier Padilla,Bonham,100.52,190.51,147.42,206.38,544.31,Single-ply,SBD,M
Boys,109.77,5,Blake Hawkins,Pottsboro,109.68,210.92,122.47,204.12,537.51,Single-ply,SBD,M
Boys,109.77,6,Nate Rainey,Lucas Lovejoy,107.77,190.51,104.33,226.8,521.63,Single-ply,SBD,M
Boys,109.77,7,Todd Jackson,Bowie,103.51,204.12,113.4,192.78,510.29,Single-ply,SBD,M
Boys,109.77,8,Heber Hernandez,Sadler S & S Cons,105.41,199.58,104.33,204.12,508.02,Single-ply,SBD,M
Boys,109.77,9,Billy Doyle,Pottsboro,102.51,199.58,104.33,190.51,494.42,Single-ply,SBD,M
Boys,109.77,10,David Lawson,Tom Bean,101.24,183.7,122.47,176.9,483.08,Single-ply,SBD,M
Boys,109.77,11,Moises Cataneda,Sherman,108.77,172.37,102.06,183.7,458.13,Single-ply,SBD,M
Boys,109.77,12,Adam Williams,Melissa,108.23,181.44,95.25,163.29,439.98,Single-ply,SBD,M
Boys,124.74,13,Larry Chumley,Sadler S & S Cons,109.95,151.95,104.33,181.44,437.72,Single-ply,SBD,M
Boys,109.77,14,Logan Smithson,Callisburg,101.42,147.42,95.25,167.83,410.5,Single-ply,SBD,M
Boys,109.77,15,Dakota Smith,Leonard,100.52,149.69,97.52,149.69,396.89,Single-ply,SBD,M
Boys,109.77,16,Joseph Taylor,Whitewright,106.05,145.15,77.11,145.15,367.41,Single-ply,SBD,M
Boys,109.77,17,Josh McCollough,Bells,107.68,90.72,77.11,113.4,281.23,Single-ply,SBD,M
Boys,109.77,DQ,Scott Blair,Anna,102.78,201.85,106.59,,,Single-ply,SBD,M
Boys,124.74,DQ,Nathan Silva,Krum,109.95,,,,,Single-ply,SBD,M
Boys,109.77,DQ,Jose Tapia,Howe,103.74,158.76,,,,Single-ply,SBD,M
Boys,109.77,DQ,Riley Stottle,Pilot Point,101.15,,,,,Single-ply,SBD,M
Boys,109.77,DQ,Mitch Hunt,Lucas Lovejoy,103.78,,,,,Single-ply,SBD,M
Boys,109.77,DQ,Dillon Gage,Sadler S & S Cons,102.42,,,,,Single-ply,SBD,M
Boys,109.77,DQ,Tanner Caraway,Whitewright,108.68,,,,,Single-ply,SBD,M
Boys,109.77,DQ,Manuel Monge,Van Alstyne,107.77,174.63,,,,Single-ply,SBD,M
Boys,124.74,1,Matt Poursoltani,Pilot Point,112.13,226.8,183.7,206.38,616.89,Single-ply,SBD,M
Boys,124.74,2,Tanner Pelham,Anna,123.65,229.06,145.15,229.06,603.28,Single-ply,SBD,M
Boys,124.74,3,Jake Barton,Callisburg,120.47,240.4,133.81,213.19,587.4,Single-ply,SBD,M
Boys,124.74,4,Tyler Ashman,Ponder,110.77,254.01,124.74,195.04,573.79,Single-ply,SBD,M
Boys,124.74,5,Gavin Buckaloo,Leonard,113.04,226.8,120.2,204.12,551.11,Single-ply,SBD,M
Boys,124.74,6,Richard Pickett,Princeton,111.04,204.12,142.88,197.31,544.31,Single-ply,SBD,M
Boys,124.74,7,Randel Furey,Sadler S & S Cons,119.75,226.8,113.4,195.04,535.24,Single-ply,SBD,M
Boys,124.74,8,Alex Mayes,Van Alstyne,117.93,176.9,124.74,181.44,483.08,Single-ply,SBD,M
Boys,124.74,9,Jorge Anguiano,Pilot Point,111.95,181.44,111.13,142.88,435.45,Single-ply,SBD,M
Boys,124.74,10,Jordan Mitchell,Krum,111.86,136.08,77.11,165.56,378.75,Single-ply,SBD,M
Boys,124.74+,1,Darius Stephenson,Sherman,144.15,226.8,124.74,170.1,521.63,Single-ply,SBD,M
Boys,124.74+,2,Adam Waw,Sherman,148.32,204.12,133.81,170.1,508.02,Single-ply,SBD,M
Boys,124.74+,3,Cameron Adkins,Leonard,128.28,183.7,90.72,181.44,455.86,Single-ply,SBD,M
Boys,124.74+,4,Wes Fulce,Sadler S & S Cons,143.61,190.51,104.33,158.76,453.59,Single-ply,SBD,M
Boys,124.74+,DQ,Bradley Bendure,Bowie,128.37,,,,,Single-ply,SBD,M
