Division,WeightClassKg,Place,Name,Team,BodyweightKg,Best3SquatKg,Best3BenchKg,Best3DeadliftKg,TotalKg,Equipment,Event,Sex
Boys,51.71,1,Chris Bowling,Blue Ridge,51.62,97.52,70.31,108.86,276.69,Single-ply,SBD,M
Boys,55.79,2,Alex Rushing,Whitewright,51.85,68.04,52.16,106.59,226.8,Single-ply,SBD,M
Boys,51.71,DQ,Tanner Heathcock,Bells,49.94,,52.16,86.18,,Single-ply,SBD,M
Boys,59.87,1,Dylan Babbitt,Bells,55.97,86.18,47.63,108.86,242.67,Single-ply,SBD,M
Boys,55.79,DQ,Baldemar Carbajal,Sherman,52.66,,,,,Single-ply,SBD,M
Boys,55.79,DQ,Koll Bickerstaff,Sherman,55.57,,,,,Single-ply,SBD,M
Boys,59.87,1,Jace Pallan,Celeste,56.7,151.95,81.65,158.76,392.36,Single-ply,SBD,M
Boys,59.87,2,Jayce Gibson,Quinlan Boles,59.1,90.72,43.09,88.45,222.26,Single-ply,SBD,M
Boys,59.87,DQ,Alex Montoya,Blue Ridge,59.47,,70.31,120.2,,Single-ply,SBD,M
Boys,59.87,DQ,Hayden Cobb,Bells,58.97,,,,,Single-ply,SBD,M
Boys,59.87,DQ,Destin Trott,Whitewright,58.56,,,,,Single-ply,SBD,M
Boys,74.84,1,Chris Stephens,Sherman,67.36,183.7,92.99,188.24,464.93,Single-ply,SBD,M
Boys,67.13,2,Mason Thompson,Whitewright,67.04,163.29,104.33,161.03,428.64,Single-ply,SBD,M
Boys,67.13,3,Dainel Broyles,Quinlan Boles,66.72,158.76,106.59,140.61,405.97,Single-ply,SBD,M
Boys,67.13,4,Tristan Coglon,Bells,64.55,145.15,79.38,151.95,376.48,Single-ply,SBD,M
Boys,74.84,5,Joseph Lopez,Anna,67.36,136.08,79.38,136.08,351.53,Single-ply,SBD,M
Boys,67.13,6,Avery Christensen,Quinlan Boles,62.28,124.74,70.31,129.27,324.32,Single-ply,SBD,M
Boys,67.13,7,Hoss McCleroy,Honey Grove,65,124.74,63.5,136.08,324.32,Single-ply,SBD,M
Boys,67.13,8,Levi Bettes,Honey Grove,61.19,113.4,61.23,124.74,299.37,Single-ply,SBD,M
Boys,67.13,9,David Bowling,Blue Ridge,63.73,90.72,77.11,124.74,292.57,Single-ply,SBD,M
Boys,67.13,10,Dane Andrews,Quinlan Boles,64.64,113.4,45.36,111.13,269.89,Single-ply,SBD,M
Boys,67.13,11,David Jaramillio,Honey Grove,61.14,102.06,45.36,120.2,267.62,Single-ply,SBD,M
Boys,67.13,12,Curtis Parker,Quinlan Boles,64.05,90.72,65.77,108.86,265.35,Single-ply,SBD,M
Boys,67.13,13,Trey Henderson,Whitewright,67.09,102.06,61.23,92.99,256.28,Single-ply,SBD,M
Boys,67.13,14,Dillan Krodle,Celeste,60.37,74.84,43.09,99.79,217.72,Single-ply,SBD,M
Boys,67.13,DQ,Johnny Amaro,Celeste,62.14,92.99,,122.47,,Single-ply,SBD,M
Boys,67.13,DQ,Martin Mijares,Bells,61.73,,70.31,131.54,,Single-ply,SBD,M
Boys,67.13,DQ,Marshall Roesler,Bells,65.05,,70.31,120.2,,Single-ply,SBD,M
Boys,74.84,1,Rickey Lewis,Celeste,68.58,170.1,83.91,176.9,430.91,Single-ply,SBD,M
Boys,74.84,2,Chase Pinion,Anna,74.53,149.69,108.86,163.29,421.84,Single-ply,SBD,M
Boys,82.1,3,Chadd Perry,Sherman,74.98,151.95,83.91,136.08,371.95,Single-ply,SBD,M
Boys,74.84,4,Kory Kent,Quinlan Boles,74.16,124.74,86.18,151.95,362.87,Single-ply,SBD,M
Boys,74.84,5,Jaret Keeton,Anna,70.31,127.01,61.23,147.42,335.66,Single-ply,SBD,M
Boys,74.84,6,Jones Patrick,Quinlan Boles,68.04,113.4,65.77,147.42,326.59,Single-ply,SBD,M
Boys,74.84,DQ,Jake Shinn,Quinlan Boles,74.84,,,,,Single-ply,SBD,M
Boys,74.84,DQ,Hunter McQuatters,Honey Grove,74.84,,,,,Single-ply,SBD,M
Boys,74.84,DQ,Patrick Harris,Honey Grove,71.35,124.74,,151.95,,Single-ply,SBD,M
Boys,82.1,1,JaKendrick Burns,Sherman,79.83,170.1,108.86,181.44,460.4,Single-ply,SBD,M
Boys,82.1,2,Orlando Mejia,Sherman,76.7,156.49,129.27,151.95,437.72,Single-ply,SBD,M
Boys,82.1,3,Garrett McLean,Bells,81.15,136.08,83.91,156.49,376.48,Single-ply,SBD,M
Boys,82.1,4,Carter Patrick,Honey Grove,76.34,136.08,77.11,156.49,369.68,Single-ply,SBD,M
Boys,82.1,5,Garrett Sullivan,Celeste,81.19,102.06,68.04,120.2,290.3,Single-ply,SBD,M
Boys,82.1,DQ,Dylan Shaw,Bells,79.38,,,,,Single-ply,SBD,M
Boys,82.1,DQ,Travis Tidwell,Quinlan Boles,82.1,,,,,Single-ply,SBD,M
Boys,82.1,DQ,Jordan Bryan,Whitewright,79.97,,,,,Single-ply,SBD,M
Boys,89.81,1,Sean Kyle,Anna,88.27,197.31,136.08,204.12,537.51,Single-ply,SBD,M
Boys,89.81,2,Wrangler Hernandez,Quinlan Boles,86.05,158.76,99.79,174.63,433.18,Single-ply,SBD,M
Boys,89.81,3,Weston Jobe,Blue Ridge,87.63,163.29,97.52,170.1,430.91,Single-ply,SBD,M
Boys,89.81,4,JaQuay Pough,Sherman,84.78,151.95,83.91,185.97,421.84,Single-ply,SBD,M
Boys,89.81,5,Phillip Heintze,Whitewright,84.05,142.88,104.33,145.15,392.36,Single-ply,SBD,M
Boys,89.81,6,Tyler Morris,Blue Ridge,83.64,158.76,102.06,120.2,381.02,Single-ply,SBD,M
Boys,89.81,7,Noah Raney,Sherman,88.99,142.88,92.99,145.15,381.02,Single-ply,SBD,M
Boys,89.81,8,Kelby Shaw,Whitewright,89.63,147.42,86.18,147.42,381.02,Single-ply,SBD,M
Boys,89.81,9,Kiefer Hansen,Whitewright,88.36,133.81,79.38,145.15,358.34,Single-ply,SBD,M
Boys,89.81,10,Tim Riskey,Celeste,86.09,92.99,61.23,102.06,256.28,Single-ply,SBD,M
Boys,89.81,DQ,Justin Bates,Blue Ridge,89.81,,,,,Single-ply,SBD,M
Boys,89.81,DQ,Anthony Aguilar,Anna,82.51,113.4,,140.61,,Single-ply,SBD,M
Boys,99.79,1,Javier Jaramillo,Honey Grove,95.07,208.65,113.4,210.92,532.97,Single-ply,SBD,M
Boys,99.79,2,James Kemp,Anna,94.21,195.04,115.67,204.12,514.83,Single-ply,SBD,M
Boys,99.79,3,Ahmed Jabai,Honey Grove,90.9,158.76,131.54,204.12,494.42,Single-ply,SBD,M
Boys,99.79,4,Jerrille Hughes,Sherman,99.11,158.76,95.25,165.56,419.57,Single-ply,SBD,M
Boys,99.79,5,Josh Melvin,Bells,97.25,154.22,99.79,163.29,417.3,Single-ply,SBD,M
Boys,99.79,6,Jermaine Finney,Honey Grove,91.49,113.4,108.86,163.29,385.55,Single-ply,SBD,M
Boys,99.79,7,Jeremiah Howell,Quinlan Boles,95.03,113.4,81.65,136.08,331.12,Single-ply,SBD,M
Boys,99.79,DQ,Javier Vasquez,Honey Grove,98.43,,,,,Single-ply,SBD,M
Boys,109.77,1,Sam Chambliss,Celeste,101.24,163.29,108.86,172.37,444.52,Single-ply,SBD,M
Boys,109.77,2,Dalton Benson,Celeste,107.32,158.76,99.79,170.1,428.64,Single-ply,SBD,M
Boys,109.77,3,Sam Gillard,Anna,103.87,174.63,95.25,154.22,424.11,Single-ply,SBD,M
Boys,109.77,4,Kent Haskett,Whitewright,104.01,142.88,72.57,165.56,381.02,Single-ply,SBD,M
Boys,124.74,1,Scott Blair,Anna,114.85,242.67,145.15,233.6,621.42,Single-ply,SBD,M
Boys,124.74,2,Dj Briscoe,Sherman,114.31,181.44,129.27,174.63,485.34,Single-ply,SBD,M
Boys,124.74,3,Enoch Johnson,Sherman,124.56,176.9,97.52,161.03,435.45,Single-ply,SBD,M
Boys,124.74,4,Colton Blackstock,Celeste,111.36,158.76,81.65,190.51,430.91,Single-ply,SBD,M
Boys,124.74,DQ,Tanner Caraway,Whitewright,114.35,,,,,Single-ply,SBD,M
Boys,124.74,DQ,Joseph Taylor,Whitewright,117.75,,,,,Single-ply,SBD,M
Boys,124.74+,DQ,Alec Dickinson,Bells,126.69,,72.57,127.01,,Single-ply,SBD,M
Boys,124.74+,DQ,Jonathan Clark,Honey Grove,136.08,,,,,Single-ply,SBD,M
