Division,WeightClassKg,Place,Name,Team,BodyweightKg,Best3SquatKg,Best3BenchKg,Best3DeadliftKg,TotalKg,Equipment,Event,Sex
Boys,51.71,1,Ryder Brock,Detroit,49.9,127.01,61.23,136.08,324.32,Single-ply,SBD,M
Boys,55.79,2,Sam McCoy,New Boston,51.94,113.4,61.23,120.2,294.84,Single-ply,SBD,M
Boys,51.71,3,Jack Jones,Cumby,51.26,113.4,72.57,106.59,292.57,Single-ply,SBD,M
Boys,51.71,4,Matt Hahn,Texarkana Pleasant Grove,47.63,99.79,56.7,120.2,276.69,Single-ply,SBD,M
Boys,55.79,1,Brandon Jones,Cumby,55.34,145.15,104.33,158.76,408.23,Single-ply,SBD,M
Boys,55.79,2,Brandon Nettles,Texarkana Pleasant Grove,54.88,142.88,83.91,136.08,362.87,Single-ply,SBD,M
Boys,59.87,3,Cody Duckworth,Detroit,56.02,111.13,58.97,124.74,294.84,Single-ply,SBD,M
Boys,55.79,4,Brent McCullough,New Boston,54.43,92.99,56.7,111.13,260.82,Single-ply,SBD,M
Boys,55.79,5,Tyler Smigeil,Diana New Diana,53.98,83.91,70.31,104.33,258.55,Single-ply,SBD,M
Boys,59.87,1,JaMarkus Boyd,Ore City,59.42,167.83,102.06,176.9,446.79,Single-ply,SBD,M
Boys,59.87,2,Reece Walker,Cumby,58.51,145.15,74.84,154.22,374.21,Single-ply,SBD,M
Boys,59.87,3,Colton Crain,Texarkana Pleasant Grove,58.97,129.27,79.38,145.15,353.8,Single-ply,SBD,M
Boys,59.87,4,Reid Bynum,Linden-Kildare,59.42,138.35,74.84,136.08,349.27,Single-ply,SBD,M
Boys,59.87,5,Montrell Franklin,Hooks,58.51,113.4,83.91,145.15,342.46,Single-ply,SBD,M
Boys,59.87,6,Timothey Brezeale,Linden-Kildare,58.51,113.4,72.57,136.08,322.05,Single-ply,SBD,M
Boys,67.13,DQ,Trent Satterfield,Hooks,60.1,127.01,,,,Single-ply,SBD,M
Boys,67.13,1,Cory Davis,Diana New Diana,65.32,199.58,92.99,183.7,476.27,Single-ply,SBD,M
Boys,67.13,2,Greg Morgan,Hughes Springs,64.41,172.37,108.86,158.76,439.98,Single-ply,SBD,M
Boys,67.13,3,Taylor Young,Ore City,66.22,179.17,83.91,176.9,439.98,Single-ply,SBD,M
Boys,67.13,4,Calum Bolig,Texarkana Pleasant Grove,63.05,163.29,86.18,174.63,424.11,Single-ply,SBD,M
Boys,67.13,5,Tanner Roberts,Detroit,65.77,147.42,104.33,172.37,424.11,Single-ply,SBD,M
Boys,67.13,6,Mikel Tharp,Detroit,64.41,147.42,79.38,156.49,383.29,Single-ply,SBD,M
Boys,67.13,7,Tristan Brooks,Detroit,61.23,151.95,68.04,158.76,378.75,Single-ply,SBD,M
Boys,67.13,8,Carson Craytor,Texarkana Pleasant Grove,62.6,145.15,70.31,161.03,376.48,Single-ply,SBD,M
Boys,67.13,9,Cody Shockley,Queen City,60.78,136.08,77.11,158.76,371.95,Single-ply,SBD,M
Boys,67.13,10,Tyler Worrell,Hooks,63.96,120.2,74.84,147.42,342.46,Single-ply,SBD,M
Boys,67.13,11,Cody Ball,Queen City,65.32,136.08,63.5,140.61,340.19,Single-ply,SBD,M
Boys,67.13,12,Josh McCarver,Detroit,61.23,124.74,74.84,124.74,324.32,Single-ply,SBD,M
Boys,74.84,13,Dakota Johnson,Linden-Kildare,67.36,108.86,70.31,136.08,315.25,Single-ply,SBD,M
Boys,67.13,14,Brody Barron,New Boston,63.96,81.65,40.82,97.52,219.99,Single-ply,SBD,M
Boys,67.13,DQ,Colby Phillips,Diana New Diana,60.78,108.86,,,,Single-ply,SBD,M
Boys,74.84,1,Cason Fogle,Diana New Diana,73.48,188.24,120.2,188.24,496.68,Single-ply,SBD,M
Boys,74.84,2,John Coe,Linden-Kildare,74.39,188.24,104.33,192.78,485.34,Single-ply,SBD,M
Boys,74.84,3,Luke Craddock,Mount Pleasant,74.84,181.44,97.52,174.63,453.59,Single-ply,SBD,M
Boys,74.84,4,Ethan Jordan,Ore City,72.12,174.63,108.86,163.29,446.79,Single-ply,SBD,M
Boys,74.84,5,Travis Bryant,Detroit,71.67,176.9,77.11,181.44,435.45,Single-ply,SBD,M
Boys,74.84,6,Aaron Hammonds,Redwater,74.16,140.61,88.45,181.44,410.5,Single-ply,SBD,M
Boys,74.84,7,Billy Loy,Queen City,71.21,142.88,83.91,167.83,394.63,Single-ply,SBD,M
Boys,74.84,8,Foxx Smith,Redwater,72.12,147.42,88.45,154.22,390.09,Single-ply,SBD,M
Boys,74.84,9,Caleb Collins,Maud,73.48,151.95,83.91,149.69,385.55,Single-ply,SBD,M
Boys,74.84,10,Toby Moss,Detroit,70.31,158.76,83.91,127.01,369.68,Single-ply,SBD,M
Boys,74.84,11,Tanner Martin,Queen City,70.31,136.08,79.38,149.69,365.14,Single-ply,SBD,M
Boys,74.84,12,Brandon Crawford,Detroit,72.12,136.08,74.84,147.42,358.34,Single-ply,SBD,M
Boys,74.84,13,Davis Thompson,Mount Pleasant,68.95,129.27,70.31,147.42,347,Single-ply,SBD,M
Boys,74.84,14,Taylor Calhoun,Queen City,74.39,122.47,72.57,142.88,337.93,Single-ply,SBD,M
Boys,74.84,15,Chance Patterson,Queen City,70.31,111.13,72.57,145.15,328.85,Single-ply,SBD,M
Boys,74.84,16,Dylan Simpson,New Boston,68.04,102.06,56.7,156.49,315.25,Single-ply,SBD,M
Boys,74.84,17,Parker Hailey,Queen City,69.4,99.79,68.04,136.08,303.91,Single-ply,SBD,M
Boys,74.84,DQ,Matthew Vaughn,Mount Pleasant,74.39,158.76,102.06,,,Single-ply,SBD,M
Boys,74.84,DQ,Lake Hight,Hooks,69.85,127.01,,,,Single-ply,SBD,M
Boys,74.84,DQ,Brad Meadows,Hooks,70.31,165.56,,,,Single-ply,SBD,M
Boys,74.84,DQ,Tristen Clayton,Cumby,71.67,156.49,,,,Single-ply,SBD,M
Boys,74.84,DQ,Garrett Hounsel,Diana New Diana,69.85,174.63,,,,Single-ply,SBD,M
Boys,74.84,DQ,Kyle Rapp,Diana New Diana,70.31,131.54,,,,Single-ply,SBD,M
Boys,82.1,1,Shaquille Grant,Linden-Kildare,77.11,215.46,106.59,233.6,555.65,Single-ply,SBD,M
Boys,82.1,2,Leo Meyers,Linden-Kildare,79.38,201.85,138.35,192.78,532.97,Single-ply,SBD,M
Boys,82.1,3,Trea Oneal,Clarksville,77.56,181.44,104.33,172.37,458.13,Single-ply,SBD,M
Boys,82.1,4,Chris Lambert,Linden-Kildare,75.75,195.04,83.91,163.29,442.25,Single-ply,SBD,M
Boys,82.1,5,Xayione Davis,Hooks,81.19,176.9,97.52,158.76,433.18,Single-ply,SBD,M
Boys,82.1,6,Jorge Martinez,Mount Pleasant,77.56,158.76,92.99,163.29,415.04,Single-ply,SBD,M
Boys,89.81,7,Dakota Adair,Ore City,82.33,163.29,90.72,145.15,399.16,Single-ply,SBD,M
Boys,82.1,8,Keith Henderson,Detroit,76.66,136.08,72.57,151.95,360.61,Single-ply,SBD,M
Boys,82.1,DQ,Hunter Dailey,Redwater,80.74,151.95,79.38,,,Single-ply,SBD,M
Boys,89.81,1,Josh Trumble,Redwater,88.22,263.08,176.9,249.48,689.46,Single-ply,SBD,M
Boys,89.81,2,Ty Jones,New Boston,88,249.48,151.95,226.8,628.23,Single-ply,SBD,M
Boys,89.81,3,Collin Craytor,Texarkana Pleasant Grove,83.46,235.87,131.54,226.8,594.21,Single-ply,SBD,M
Boys,89.81,4,Adam Owens,Texarkana Pleasant Grove,88,219.99,124.74,226.8,571.53,Single-ply,SBD,M
Boys,89.81,5,Papa Chisum,Hughes Springs,88.45,217.72,124.74,215.46,557.92,Single-ply,SBD,M
Boys,89.81,6,Cole Yeldell,Redwater,88.9,204.12,149.69,204.12,557.92,Single-ply,SBD,M
Boys,89.81,7,Taylor Ligon,Diana New Diana,87.54,199.58,131.54,181.44,512.56,Single-ply,SBD,M
Boys,89.81,8,Blake Westbrook,Detroit,86.18,201.85,106.59,199.58,508.02,Single-ply,SBD,M
Boys,89.81,9,Tyler Hutsell,Linden-Kildare,83.91,213.19,83.91,179.17,476.27,Single-ply,SBD,M
Boys,89.81,10,Josue Correa,Mount Pleasant,84.37,185.97,95.25,174.63,455.86,Single-ply,SBD,M
Boys,89.81,11,Lee Foster,New Boston,89.81,188.24,97.52,158.76,444.52,Single-ply,SBD,M
Boys,89.81,12,Tim Carr,Maud,87.09,172.37,86.18,163.29,421.84,Single-ply,SBD,M
Boys,89.81,13,William Johnson,Ore City,83.91,136.08,95.25,163.29,394.63,Single-ply,SBD,M
Boys,89.81,14,Lane Burleson,Linden-Kildare,86.18,151.95,74.84,145.15,371.95,Single-ply,SBD,M
Boys,89.81,15,Stephen McPeters,Clarksville,87.54,113.4,86.18,145.15,344.73,Single-ply,SBD,M
Boys,89.81,16,Parker Hartcraft,Queen City,87.09,113.4,72.57,145.15,331.12,Single-ply,SBD,M
Boys,89.81,DQ,Christian Smith,Hughes Springs,87.09,,,,,Single-ply,SBD,M
Boys,99.79,1,Damien Haskins,New Boston,96.16,272.16,149.69,272.16,694,Single-ply,SBD,M
Boys,99.79,2,Tyler Wellborn,Texarkana Pleasant Grove,91.63,235.87,133.81,215.46,585.13,Single-ply,SBD,M
Boys,99.79,3,Jacobie Briscoe,Redwater,95.93,229.06,147.42,190.51,566.99,Single-ply,SBD,M
Boys,99.79,4,Blake Jordan,Texarkana Pleasant Grove,95.25,208.65,131.54,215.46,555.65,Single-ply,SBD,M
Boys,99.79,5,Alejandro Barajas,Mount Pleasant,98.88,222.26,120.2,195.04,537.51,Single-ply,SBD,M
Boys,99.79,6,Rj Williams,Hooks,98.88,190.51,129.27,204.12,523.9,Single-ply,SBD,M
Boys,99.79,7,Tad Clark,Diana New Diana,97.52,192.78,102.06,201.85,496.68,Single-ply,SBD,M
Boys,99.79,8,Jacoby Nelloms,Hooks,96.16,172.37,113.4,181.44,467.2,Single-ply,SBD,M
Boys,99.79,9,Gary Alexander,Maud,97.07,181.44,83.91,147.42,412.77,Single-ply,SBD,M
Boys,109.77,1,Reggie Scales,New Boston,106.14,340.19,190.51,272.16,802.86,Single-ply,SBD,M
Boys,109.77,2,Dewey Fleming,Redwater,105.01,290.3,183.7,244.94,718.94,Single-ply,SBD,M
Boys,109.77,3,Anthony Ringenberg,Cumby,104.78,231.33,136.08,226.8,594.21,Single-ply,SBD,M
Boys,109.77,4,Clifford Dial,Ore City,106.14,249.48,131.54,213.19,594.21,Single-ply,SBD,M
Boys,109.77,5,Drew Davis,Texarkana Pleasant Grove,104.33,226.8,124.74,192.78,544.31,Single-ply,SBD,M
Boys,109.77,6,James Hanson,Mount Pleasant,103.42,192.78,106.59,217.72,517.1,Single-ply,SBD,M
Boys,109.77,7,Trevor Perry,Hughes Springs,106.59,181.44,111.13,170.1,462.66,Single-ply,SBD,M
Boys,109.77,8,Trent Davis,Diana New Diana,102.51,163.29,111.13,181.44,455.86,Single-ply,SBD,M
Boys,109.77,9,Devon Hargrove,Mount Pleasant,102.06,174.63,99.79,161.03,435.45,Single-ply,SBD,M
Boys,109.77,10,Geremy Williams,Clarksville,103.42,145.15,113.4,163.29,421.84,Single-ply,SBD,M
Boys,109.77,11,McKellar Karr,Diana New Diana,106.59,147.42,111.13,158.76,417.3,Single-ply,SBD,M
Boys,109.77,12,Jordan Limon,Clarksville,108.41,124.74,92.99,158.76,376.48,Single-ply,SBD,M
Boys,109.77,DQ,Cody Templeton,Hooks,106.59,154.22,111.13,,,Single-ply,SBD,M
Boys,109.77,DQ,Justin Burney,Hooks,105.23,163.29,,,,Single-ply,SBD,M
Boys,124.74,1,Brandon Contoleon,New Boston,118.39,226.8,111.13,195.04,532.97,Single-ply,SBD,M
Boys,124.74,2,Jermaine Emmers,Clarksville,112.49,204.12,120.2,190.51,514.83,Single-ply,SBD,M
Boys,124.74,3,Glen Goode,Cumby,115.89,195.04,120.2,181.44,496.68,Single-ply,SBD,M
Boys,124.74,4,Andrew Lomax,Hooks,114.31,181.44,108.86,188.24,478.54,Single-ply,SBD,M
Boys,124.74,5,Francisco Morales,Mount Pleasant,122.47,204.12,92.99,181.44,478.54,Single-ply,SBD,M
Boys,124.74,6,Tim Rovell,Mount Pleasant,115.67,204.12,90.72,176.9,471.74,Single-ply,SBD,M
Boys,124.74,7,Brandon Clements,New Boston,113.4,172.37,97.52,165.56,435.45,Single-ply,SBD,M
Boys,124.74,8,Kiara Neal,Linden-Kildare,112.49,165.56,81.65,167.83,415.04,Single-ply,SBD,M
Boys,124.74,9,Aj HOlder,Ore City,111.13,142.88,99.79,163.29,405.97,Single-ply,SBD,M
Boys,124.74,10,Robert Krider,Linden-Kildare,117.48,145.15,77.11,124.74,347,Single-ply,SBD,M
Boys,124.74,DQ,Cameron Brewer,Hughes Springs,110.68,,,,,Single-ply,SBD,M
Boys,124.74+,1,Ryan Russell,Hughes Springs,127.46,256.28,161.03,213.19,630.49,Single-ply,SBD,M
Boys,124.74+,2,Trey Villareal,Diana New Diana,140.61,233.6,127.01,226.8,587.4,Single-ply,SBD,M
Boys,124.74+,3,Wesley Holmes,New Boston,129.73,242.67,129.27,181.44,553.38,Single-ply,SBD,M
Boys,124.74+,4,Will Wright,Mount Pleasant,151.95,210.92,131.54,185.97,528.44,Single-ply,SBD,M
Boys,,NS,Kolton Morgan,Queen City,,,,,,Single-ply,SBD,M
