Place,Name,BirthYear,WeightClassKg,BodyweightKg,Country,Squat1Kg,Squat2Kg,Squat3Kg,Best3SquatKg,Bench1Kg,Bench2Kg,Bench3Kg,Best3BenchKg,Deadlift1Kg,Deadlift2Kg,Deadlift3Kg,Best3DeadliftKg,TotalKg,Event,Equipment,Division,Sex
1,Andrzej Stanaszek,1971,52,51.3,Poland,270,280,290,290,160,170,-172.5,170,130,135,140,140,600,SBD,Raw,Open,M
2,Ravil Kazakov,1982,52,51.7,Russia,220,230,235,235,135,-145,145,145,170,180,-190,180,560,SBD,Single-ply,Open,M
3,Dariusz Wszoła,1978,52,51.7,Poland,195,-205,-205,195,117.5,122.5,-125,122.5,175,185,-190,185,502.5,SBD,Single-ply,Open,M
1,Konstantin Pavlov,1973,56,55,Russia,220,240,-255,240,155,167.5,-170,167.5,205,-215,-215,205,612.5,SBD,Single-ply,Open,M
2,Sławomir Śledź,1976,56,55.9,Poland,205,215,220,220,140,-147.5,-150,140,200,207.5,210,210,570,SBD,Single-ply,Open,M
3,Sergiy Vatyuk,1962,56,55.99,Ukraine,195,200,-205,200,140,147.5,-150,147.5,200,215,-225,215,562.5,SBD,Single-ply,Open,M
4,Alistair Fleming,1969,56,55.9,UK,192.5,202.5,-207.5,202.5,107.5,-112.5,-112.5,107.5,205,-215,215,215,525,SBD,Single-ply,Open,M
DQ,Jürgen Nemeth,1972,56,55.9,Austria,195,205,210,210,115,120,-122.5,120,-232.5,-232.5,-232.5,,,SBD,Single-ply,Open,M
1,Mikhail Andryukhin,1970,60,60,Russia,240,255,270,270,135,145,150,150,240,-260,260,260,680,SBD,Single-ply,Open,M
2,Vitaliy Teteutsa,1977,60,59.8,Ukraine,220,227.5,235,235,147.5,152.5,157.5,157.5,225,-235,-235,225,617.5,SBD,Single-ply,Open,M
3,Mariusz Olech,1976,60,59.9,Poland,210,225,235,235,125,130,-132.5,130,230,240,-255,240,605,SBD,Single-ply,Open,M
4,Roy Brandtzæg,1973,60,58.4,Norway,225,230,-232.5,230,125,130,132.5,132.5,220,227.5,232.5,232.5,595,SBD,Single-ply,Open,M
5,Jean-Franco Boyer,1975,60,59.2,France,210,220,-230,220,120,-125,-125,120,230,240,-257.5,240,580,SBD,Single-ply,Open,M
6,Janek Nurmeots,1974,60,59.8,Estonia,-217.5,217.5,225,225,-120,125,130,130,210,222.5,-230,222.5,577.5,SBD,Single-ply,Open,M
1,Jarosław Olech,1974,67.5,66.6,Poland,300,315,-325,315,155,-165,165,165,280,290,300,300,780,SBD,Single-ply,Open,M
2,Roberto Sacco,1975,67.5,66.8,Italy,265,280,-285,280,145,150,-152.5,150,280,300,-302.5,300,730,SBD,Single-ply,Open,M
3,Evgeniy Dolgov,1976,67.5,67.4,Russia,270,280,-285,280,160,170,-172.5,170,265,277.5,-282.5,277.5,727.5,SBD,Single-ply,Open,M
4,Hassan El Belghiti,1975,67.5,67.44,France,255,-270,-270,255,142.5,145,-147.5,145,277.5,292.5,-300,292.5,692.5,SBD,Single-ply,Open,M
5,Amit Selberg,1976,67.5,67.1,Sweden,245,260,-267.5,260,155,165,172.5,172.5,210,-230,230,230,662.5,SBD,Single-ply,Open,M
6,Philip Richards,1971,67.5,67.1,UK,260,-270,270,270,-160,160,-167.5,160,230,-240,-240,230,660,SBD,Single-ply,Open,M
7,Richard Lettner,1974,67.5,67.5,Austria,225,237.5,-240,237.5,147.5,152.5,-155,152.5,230,-240,-240,230,620,SBD,Single-ply,Open,M
8,Karel Ruso,1965,67.5,67.2,Czechia,235,245,252.5,252.5,120,125,-127.5,125,215,-225,-225,215,592.5,SBD,Single-ply,Open,M
1,Viktor Furazhkin,1969,75,74.9,Russia,300,315,320,320,200,210,215,215,295,307.5,312.5,312.5,847.5,SBD,Single-ply,Open,M
2,Oleksandr Kutcher,1980,75,74.5,Ukraine,275,285,295,295,175,182.5,187.5,187.5,285,300,-312.5,300,782.5,SBD,Single-ply,Open,M
3,Jaroslaw Spychala,1978,75,74.9,Poland,265,275,285,285,165,172.5,-180,172.5,270,280,290,290,747.5,SBD,Single-ply,Open,M
4,Hans Andersson,1977,75,75,Sweden,255,-270,-270,255,170,185,-190,185,270,-290,-310,270,710,SBD,Single-ply,Open,M
5,Jan Wilczyński,1955,75,73.1,Poland,250,260,265,265,150,155,157.5,157.5,270,280,-287.5,280,702.5,SBD,Single-ply,Open,M
6,Paul Köster,1971,75,75,Estonia,240,247.5,255,255,165,172.5,-175,172.5,250,260,267.5,267.5,695,SBD,Single-ply,Open,M
7,Co Hoppenbrouwers,1958,75,73.7,Netherlands,210,220,225,225,145,155,-157.5,155,245,260,265,265,645,SBD,Single-ply,Open,M
8,Erik Rasmusen,1962,75,75,Denmark,225,240,,240,165,172.5,-175,172.5,220,-235,-235,220,632.5,SBD,Single-ply,Open,M
1,Dmytro Solovyov,1970,82.5,82.33,Ukraine,307.5,315,322.5,322.5,215,-220,-222.5,215,290,295,300,300,837.5,SBD,Single-ply,Open,M
2,Jan Wegiera,1965,82.5,81.2,Poland,290,300,310,310,210,217.5,222.5,222.5,270,280,285,285,817.5,SBD,Single-ply,Open,M
3,Patrik Turesson,1974,82.5,81.9,Sweden,290,310,-320,310,180,187.5,192.5,192.5,302.5,312.5,-335,312.5,815,SBD,Single-ply,Open,M
4,Frédéric Gandner,1969,82.5,82.5,France,280,295,,295,180,190,-200,190,290,310,-320,310,795,SBD,Single-ply,Open,M
5,Yannick Clement,1973,82.5,81.8,France,-275,275,295,295,165,175,180,180,280,300,312.5,312.5,787.5,SBD,Single-ply,Open,M
6,Hannu Malinen,1955,82.5,82.3,Finland,270,282.5,290,290,177.5,,185,185,310,,,310,785,SBD,Single-ply,Open,M
7,Jaswinder Singh,1976,82.5,82.4,UK,-270,-270,270,270,-185,190,195,195,-265,275,282.5,282.5,747.5,SBD,Single-ply,Open,M
8,Tor-Egil Skogly,1964,82.5,79.9,Norway,-270,-280,280,280,165,170,-172.5,170,280,295,-300,295,745,SBD,Single-ply,Open,M
9,Pjotr van den Hoek,1972,82.5,82.4,Netherlands,265,-277.5,-277.5,265,165,-170,-175,165,270,282.5,-290,282.5,712.5,SBD,Single-ply,Open,M
10,Gerhard Grossbeck,1976,82.5,78.5,Austria,240,-260,-260,240,170,175,-177.5,175,240,247.5,255,255,670,SBD,Single-ply,Open,M
1,Andrey Tarasenko,1975,90,90,Russia,335,355,365,365,225,242.5,247.5,247.5,310,330,345,345,957.5,SBD,Single-ply,Open,M
2,Ivan Freydun,1981,90,89.6,Ukraine,335,345,-355,345,235,245,250,250,320,330,-347.5,330,925,SBD,Single-ply,Open,M
3,Petr Theuser,1961,90,89.5,Czechia,325,340,347.5,347.5,215,222.5,-227.5,222.5,300,310,-315,310,880,SBD,Single-ply,Open,M
4,Roman Szymkowiak,1959,90,90,Poland,300,-315,325,325,190,202.5,210,210,315,340,-347.5,340,875,SBD,Single-ply,Open,M
5,Anibal Manuel Coimbra Marques,1972,90,89,Luxembourg,300,310,317.5,317.5,190,192.5,195,195,310,320,-325,320,832.5,SBD,Single-ply,Open,M
6,Dominique Desachy,1965,90,89,France,295,305,-312.5,305,190,200,-202.5,200,-275,275,290,290,795,SBD,Single-ply,Open,M
7,Margus Silbaum,1976,90,89.1,Estonia,-290,-290,290,290,180,190,195,195,310,,,310,795,SBD,Single-ply,Open,M
8,Seppo Sohlman,1975,90,88.8,Finland,275,-285,285,285,180,-190,-190,180,320,-340,-340,320,785,SBD,Single-ply,Open,M
9,Marius Arnesen,1971,90,89.8,Norway,280,-287.5,-287.5,280,-190,190,195,195,290,-295,,290,765,SBD,Single-ply,Open,M
10,Frank Hausburg,1971,90,89.7,Germany,280,-302.5,-302.5,280,160,170,175,175,285,305,-315,305,760,SBD,Single-ply,Open,M
1,Yuriy Fedorenko,1974,100,99.5,Russia,350,365,370,370,210,220,-222.5,220,345,355,362.5,362.5,952.5,SBD,Single-ply,Open,M
2,Oleksiy Rokochyy Jr,1981,100,99.5,Ukraine,350,365,-372.5,365,225,-232.5,-232.5,225,330,-340,-357.5,330,920,SBD,Single-ply,Open,M
3,Oleksiy Vyshnytskyy,1981,100,98.1,Ukraine,360,367.5,-372.5,367.5,200,-207.5,-207.5,200,350,-360,,350,917.5,SBD,Single-ply,Open,M
4,Jarmo Sohlman,1969,100,98.3,Finland,310,-320,-320,310,210,-220,-225,210,320,-335,-335,320,840,SBD,Single-ply,Open,M
5,Niklas Gustafsson,1975,100,99.6,Sweden,300,320,330,330,190,200,-207.5,200,287.5,302.5,-312.5,302.5,832.5,SBD,Single-ply,Open,M
6,Orhan Bilican,1978,100,98.8,Belgium,300,330,-342.5,330,200,-210,215,215,270,-282.5,282.5,282.5,827.5,SBD,Single-ply,Open,M
7,Jamie Burke,1976,100,94.7,UK,300,315,320,320,187.5,195,200,200,295,-305,-305,295,815,SBD,Single-ply,Open,M
8,André Peeters,1970,100,97.8,France,310,,,310,200,-210,,200,305,-325,,305,815,SBD,Single-ply,Open,M
9,Tommi Jalonen,1970,100,98.7,Finland,-290,290,300,300,-210,210,-220,210,280,300,-307.5,300,810,SBD,Single-ply,Open,M
10,Marcel van Nugteren,1968,100,99.9,Netherlands,270,285,-290,285,200,-207.5,-207.5,200,270,-280,280,280,765,SBD,Single-ply,Open,M
11,Karu Rain,1976,100,99.1,Estonia,275,285,290,290,170,180,-185,180,275,285,-295,285,755,SBD,Single-ply,Open,M
12,Edwar Bontekoning,1974,100,100,Netherlands,270,285,292.5,292.5,145,152.5,-155,152.5,270,287.5,292.5,292.5,737.5,SBD,Single-ply,Open,M
DQ,Kryzstof Welna,1971,100,96.8,Poland,-340,340,-355,340,215,222.5,-227.5,222.5,-320,-320,-320,,,SBD,Single-ply,Open,M
1,Valentin Dedyulia,1977,110,108.9,Russia,360,380,-387.5,380,222.5,230,235,235,335,350,-355,350,965,SBD,Single-ply,Open,M
2,Jörgen Ljungberg,1967,110,109.9,Sweden,370,-382.5,-382.5,370,225,235,237.5,237.5,330,350,-360,350,957.5,SBD,Single-ply,Open,M
3,Viktor Karpik,1978,110,109.4,Ukraine,370,380,-387.5,380,-220,220,230,230,-332.5,332.5,-347.5,332.5,942.5,SBD,Single-ply,Open,M
4,Istvan Arvai,1972,110,109.6,Hungary,350,-360,360,360,230,-240,-240,230,340,-350,-355,340,930,SBD,Single-ply,Open,M
5,Hannu Kopola,1978,110,109.9,Finland,320,330,-335,330,200,207.5,212.5,212.5,335,-347.5,-347.5,335,877.5,SBD,Single-ply,Open,M
6,Tollef Taksdal,1975,110,109.9,Norway,310,322.5,327.5,327.5,215,222.5,230,230,290,300,302.5,302.5,860,SBD,Single-ply,Open,M
7,Stefan Huldén,1966,110,109.6,Sweden,315,-330,-330,315,200,205,-210,205,310,-335,-335,310,830,SBD,Single-ply,Open,M
8,Mark Neele,1975,110,109.6,Netherlands,300,325,-340,325,180,195,202.5,202.5,285,-305,-305,285,812.5,SBD,Single-ply,Open,M
9,Michael Kalter,1972,110,109.3,Netherlands,300,320,,320,180,-190,-190,180,-310,310,-332.5,310,810,SBD,Single-ply,Open,M
10,Lars Sørige,1968,110,109.9,Denmark,292.5,-305,-305,292.5,202.5,210,215,215,285,-300,-300,285,792.5,SBD,Single-ply,Open,M
11,Stephan Vorup,1973,110,107.9,Denmark,315,-325,-325,315,170,-180,-180,170,270,280,290,290,775,SBD,Single-ply,Open,M
1,Volodymyr Muravlyov,1975,125,123.9,Ukraine,370,-392.5,-400,370,240,-252.5,252.5,252.5,330,340,-357.5,340,962.5,SBD,Single-ply,Open,M
2,Ove Lehto,1972,125,124.4,Finland,325,-337.5,-337.5,325,242.5,252.5,260,260,340,352.5,-360,352.5,937.5,SBD,Single-ply,Open,M
3,Dean Bowring,1974,125,123.55,UK,317.5,337.5,345,345,-250,250,-257.5,250,300,315,-345,315,910,SBD,Single-ply,Open,M
4,Vesel Parashkevov,1977,125,122.9,Bulgaria,340,-350,-350,340,-175,-175,185,185,-340,340,342.5,342.5,867.5,SBD,Single-ply,Open,M
5,Harri Heinilä,1975,125,116.5,Finland,-340,-340,340,340,-225,-225,225,225,300,-330,-345,300,865,SBD,Single-ply,Open,M
6,Frode Rui,1969,125,116.8,Norway,320,332.5,,332.5,192.5,197.5,-200,197.5,310,-322.5,322.5,322.5,852.5,SBD,Single-ply,Open,M
7,Matthias Schröder,1976,125,119.1,Germany,285,300,305,305,225,-235,-235,225,305,317.5,-325,317.5,847.5,SBD,Single-ply,Open,M
8,Tomas Svanelind,1967,125,123.9,Sweden,305,-320,-320,305,220,230,237.5,237.5,275,290,300,300,842.5,SBD,Single-ply,Open,M
9,Kristoffer Willebrand,1975,125,112,Sweden,305,-325,-325,305,200,207.5,-212.5,207.5,290,310,-330,310,822.5,SBD,Single-ply,Open,M
10,Luc Collart,1959,125,119.4,Belgium,325,345,350,350,197.5,205,-207.5,205,-250,265,-280,265,820,SBD,Single-ply,Open,M
DQ,Morten Sørig,1969,125,124.2,Denmark,-315,320,-335,320,-210,-210,-210,,,,,,,SBD,Single-ply,Open,M
1,Vitaliy Papazov,1980,125+,128.2,Ukraine,410,-430.5,430.5,430.5,260,275,-280,275,355,-375,-375,355,1060,SBD,Single-ply,Open,M
2,Andrey Malanichev,1977,125+,134.1,Russia,-380,-400,400,400,240,250,260,260,340,350,-360,350,1010,SBD,Single-ply,Open,M
3,Viktor Naleykin,1953,125+,137.1,Ukraine,385,395,-402.5,395,230,240,245,245,350,-362.5,-362.5,350,990,SBD,Single-ply,Open,M
4,Sdenek Sedmik,1974,125+,138.7,Czechia,340,-360,360,360,240,250,260,260,330,340,,340,960,SBD,Single-ply,Open,M
5,Johnny Wahlqvist,1973,125+,158.8,Sweden,380,,,380,240,,250,250,312.5,322.5,,322.5,952.5,SBD,Single-ply,Open,M
6,Dietmar Zint,1977,125+,135,Germany,335,352.5,360,360,,,245,245,310,320,,320,925,SBD,Single-ply,Open,M
7,Jari Martikainen,1975,125+,131.8,Finland,,340,350,350,190,200,207.5,207.5,330,342.5,352.5,352.5,910,SBD,Single-ply,Open,M
8,Niels Stærkjær,1968,125+,158.8,Denmark,,310,330,330,262.5,,,262.5,245,257.5,267.5,267.5,860,SBD,Single-ply,Open,M
9,Florent Veldeman,1978,125+,200,Belgium,270,-300,300,300,240,260,,260,270,300,,300,860,SBD,Single-ply,Open,M
DQ,Raimo Mäkelä,1962,125+,140.6,Sweden,,-330,330,330,235,,,235,,,,,,SBD,Single-ply,Open,M
