KATEGORIJSKA EQ BENCH PRESS;;;;;;;;;;;;;;;;;;;;;;;;;;;;;;;;;;;;;;;;;;;;;;;;;;;;
75;;NIKOLA Kaluđerović;M;1995;82.50;1.0290;1.0200;4/1/2017 8:00 AM;MONTENEGRO;;;;Juniors -75kg EQUIP;-75.0;J;EQUIP;;5/3;;;145.0;152.5;#;;145.0;145.0;1;1;149.2050;152.1891;149.2050;152.1891;;;;;;;145.0;145.0;1;1;149.2050;152.1891;149.2050;152.1891;;;;;J;OK
110;;MILOŠ Ćećanović;M;1978;103.15;0.9040;;4/1/2017 8:00 AM;MONTENEGRO;;;;Men -110kg EQUIP;-110.0;Seniors;EQUIP;;5/4;;;-250.0;250.0;262.5;-270.0;262.5;262.5;1;1;237.3000;237.3000;237.3000;237.3000;;;;;;;262.5;262.5;1;1;237.3000;237.3000;237.3000;237.3000;;;;;O;OK
125;;SAŠA Mašanović;M;1967;122.30;0.8610;1.1320;4/1/2017 8:00 AM;MONTENEGRO;;;;Men M1 -125kg EQUIP;-125.0;Masters1;EQUIP;;5/5;;;220.0;225.0;-230.0;;225.0;225.0;1;1;193.7250;219.2967;193.7250;219.2967;;;;;;;225.0;225.0;1;1;193.7250;219.2967;193.7250;219.2967;;;;;M2;OK
140;;BUDA Richárd;M;1993;127.25;0.8548;;4/1/2017 8:00 AM;HUNGARY;;;;Juniors -140kg EQUIP;-140.0;J;EQUIP;;5/3;;;360.0;-380.0;-391.0;-391.0;360.0;360.0;1;1;307.7280;307.7280;307.7280;307.7280;;;;;;;360.0;360.0;1;1;307.7280;307.7280;307.7280;307.7280;;;;;J;OK
;;;;;;;;;;;;;;;;;;;;;;;;;;;;;;;;;;;;;;;;;;;;;;;;;;;;