Division,WeightClassKg,Place,Name,Team,BodyweightKg,Best3SquatKg,Best3BenchKg,Best3DeadliftKg,TotalKg,Equipment,Event,Sex
Boys,55.79,1,Caleb Nixon,Daingerfield,55.61,136.08,52.16,138.35,326.59,Single-ply,SBD,M
Boys,55.79,2,Michael Jimenez,Daingerfield,53.43,29.48,29.48,61.23,120.2,Single-ply,SBD,M
Boys,67.13,1,Dedrick Hill,Hughes Springs,62.87,190.51,115.67,195.04,501.22,Single-ply,SBD,M
Boys,67.13,2,Jason Jackson,De Kalb,66.5,195.04,111.13,185.97,492.15,Single-ply,SBD,M
Boys,67.13,3,Florencio Sauceda,Daingerfield,63.59,156.49,92.99,170.1,419.57,Single-ply,SBD,M
Boys,67.13,4,Jordan Sears,Daingerfield,67.13,165.56,79.38,165.56,410.5,Single-ply,SBD,M
Boys,67.13,5,Mr Sumner,New Boston,61.6,104.33,65.77,145.15,315.25,Single-ply,SBD,M
Boys,67.13,DQ,Jestin Biles,Daingerfield,63.23,,79.38,136.08,,Single-ply,SBD,M
Boys,74.84,1,La-Jathan Allen,Omaha Pewitt,74.12,192.78,108.86,197.31,498.95,Single-ply,SBD,M
Boys,74.84,2,Jayden Bruce,Hughes Springs,74.03,138.35,115.67,147.42,401.43,Single-ply,SBD,M
Boys,74.84,3,Logan Smith,New Boston,71.67,142.88,83.91,165.56,392.36,Single-ply,SBD,M
Boys,74.84,4,Wesley Butler,Hughes Springs,70.03,142.88,111.13,136.08,390.09,Single-ply,SBD,M
Boys,82.1,1,Sidney Royal,Daingerfield,79.92,174.63,111.13,183.7,469.47,Single-ply,SBD,M
Boys,82.1,2,Ishmael Allen,Daingerfield,79.11,142.88,83.91,215.46,442.25,Single-ply,SBD,M
Boys,82.1,3,Dillon Kizer,De Kalb,75.48,172.37,97.52,170.1,439.98,Single-ply,SBD,M
Boys,82.1,4,Dylan Perkins,New Boston,80.1,156.49,97.52,172.37,426.38,Single-ply,SBD,M
Boys,82.1,5,Tylor Lester,Daingerfield,79.74,156.49,102.06,165.56,424.11,Single-ply,SBD,M
Boys,82.1,6,Arie Love,De Kalb,78.47,174.63,97.52,142.88,415.04,Single-ply,SBD,M
Boys,82.1,7,Nacory Lee,Hughes Springs,78.2,129.27,113.4,142.88,385.55,Single-ply,SBD,M
Boys,82.1,8,James Gilmore,Omaha Pewitt,77.29,129.27,88.45,156.49,374.21,Single-ply,SBD,M
Boys,82.1,9,Austin Fomby,Daingerfield,79.83,102.06,79.38,142.88,324.32,Single-ply,SBD,M
Boys,89.81,1,David Martinez,Omaha Pewitt,85.73,170.1,95.25,151.95,417.3,Single-ply,SBD,M
Boys,89.81,2,Jerrett McCollum,Omaha Pewitt,89.18,136.08,92.99,170.1,399.16,Single-ply,SBD,M
Boys,89.81,3,Arshray Peters,Hughes Springs,84.1,151.95,83.91,154.22,390.09,Single-ply,SBD,M
Boys,99.79,1,Garrison McKinnie,De Kalb,99.16,204.12,145.15,206.38,555.65,Single-ply,SBD,M
Boys,99.79,2,Zachary Pilgrim,Hughes Springs,92.62,197.31,151.95,199.58,548.85,Single-ply,SBD,M
Boys,99.79,3,Dakota Kizer,De Kalb,98.97,206.38,129.27,197.31,532.97,Single-ply,SBD,M
Boys,99.79,4,Elijah Allen,Daingerfield,93.44,215.46,99.79,213.19,528.44,Single-ply,SBD,M
Boys,99.79,5,Nakia Lee,Hughes Springs,98.16,195.04,131.54,199.58,526.17,Single-ply,SBD,M
Boys,99.79,6,Timothy Climer,Daingerfield,99.7,99.79,74.84,145.15,319.78,Single-ply,SBD,M
Boys,109.77,1,Hunter Brabham,Hughes Springs,106.78,263.08,147.42,226.8,637.3,Single-ply,SBD,M
Boys,109.77,2,Stancio Battles,New Boston,104.24,238.14,140.61,251.74,630.49,Single-ply,SBD,M
Boys,109.77,3,Simeon Spearmon,Daingerfield,102.33,183.7,115.67,226.8,526.17,Single-ply,SBD,M
Boys,109.77,4,Aaron Hill,New Boston,107.14,190.51,113.4,219.99,523.9,Single-ply,SBD,M
Boys,124.74,1,Zach Gilmore,Daingerfield,119.66,215.46,149.69,192.78,557.92,Single-ply,SBD,M
Boys,124.74,2,Victor Sanchez,New Boston,112.85,208.65,124.74,199.58,532.97,Single-ply,SBD,M
Boys,124.74,3,Payton Burch,Omaha Pewitt,121.2,142.88,127.01,183.7,453.59,Single-ply,SBD,M
Boys,124.74+,1,Aaron Carroll,Daingerfield,127.19,195.04,142.88,204.12,542.04,Single-ply,SBD,M
Boys,124.74+,2,Jacob Thompson,New Boston,125.28,192.78,133.81,195.04,521.63,Single-ply,SBD,M
Boys,124.74+,3,Demarcus Hill,Omaha Pewitt,167.83,176.9,111.13,204.12,492.15,Single-ply,SBD,M
Boys,124.74+,4,Cody Rutherford,New Boston,133.54,188.24,99.79,181.44,469.47,Single-ply,SBD,M
Boys,124.74+,5,Jaqualine Evans,Daingerfield,158.94,188.24,92.99,183.7,464.93,Single-ply,SBD,M
Boys,124.74+,6,David Williams,Omaha Pewitt,143.43,167.83,99.79,174.63,442.25,Single-ply,SBD,M
