Division,WeightClassKg,Place,Name,Team,BodyweightKg,Best3SquatKg,Best3BenchKg,Best3DeadliftKg,TotalKg,Equipment,Event,Sex
Girls,44.23,1,Ania Belvin,Moody,40.42,90.72,38.56,108.86,238.14,Single-ply,SBD,F
Girls,44.23,2,Diandra Tejada,Stephenville,43.64,70.31,38.56,97.52,206.38,Single-ply,SBD,F
Girls,44.23,3,Sage Thompson,Lometa,43.95,72.57,47.63,74.84,195.04,Single-ply,SBD,F
Girls,44.23,4,Yamilet Rodriguez,Moody,41.73,65.77,29.48,61.23,156.49,Single-ply,SBD,F
Girls,44.23,5,Daisy Leija,Stephenville,40.14,54.43,20.41,61.23,136.08,Single-ply,SBD,F
Girls,44.23,6,Elysia Sotelo,Stephenville,41.78,34.02,20.41,43.09,97.52,Single-ply,SBD,F
Girls,47.85,1,Blaine Gluck,Stephenville,47.17,124.74,52.16,117.93,294.84,Single-ply,SBD,F
Girls,47.85,2,Zhynese Finley,Bangs,46.81,97.52,43.09,113.4,254.01,Single-ply,SBD,F
Girls,47.85,3,Alexis Gustavsen,Hico,47.63,83.91,38.56,92.99,215.46,Single-ply,SBD,F
Girls,47.85,4,Jordyn Pitts,Bangs,47.76,77.11,38.56,97.52,213.19,Single-ply,SBD,F
Girls,47.85,5,Jimena Vasquez,Dublin,47.31,74.84,36.29,92.99,204.12,Single-ply,SBD,F
Girls,47.85,6,Aurora Borden,Moody,46.58,81.65,38.56,81.65,201.85,Single-ply,SBD,F
Girls,47.85,7,Savannah Simmerly,Lometa,45.5,72.57,36.29,74.84,183.7,Single-ply,SBD,F
Girls,47.85,8,Laine Williams,Gordon,45.36,56.7,22.68,56.7,136.08,Single-ply,SBD,F
Girls,51.94,1,Morgan Squires,Godley,51.48,102.06,49.9,115.67,267.62,Single-ply,SBD,F
Girls,51.94,2,Alicia Cortez,Moody,51.39,104.33,47.63,97.52,249.48,Single-ply,SBD,F
Girls,51.94,3,Amiah Rodriguez,Stephenville,49.99,95.25,45.36,95.25,235.87,Single-ply,SBD,F
Girls,51.94,4,Brianna Miller,Lampasas,51.71,83.91,49.9,95.25,229.06,Single-ply,SBD,F
Girls,51.94,5,Halee Layne,Moody,49.99,83.91,47.63,79.38,210.92,Single-ply,SBD,F
Girls,51.94,6,Channah Moore,Dublin,48.22,77.11,34.02,97.52,208.65,Single-ply,SBD,F
Girls,51.94,7,Alexandria Olson,Troy,50.21,83.91,34.02,81.65,199.58,Single-ply,SBD,F
Girls,51.94,8,Ethni Sanchez,Lampasas,50.58,68.04,36.29,88.45,192.78,Single-ply,SBD,F
Girls,51.94,9,Yeirem Trevino,Moody,48.85,72.57,31.75,86.18,190.51,Single-ply,SBD,F
Girls,51.94,10,Angelina Cummins,Lampasas,50.21,77.11,34.02,79.38,190.51,Single-ply,SBD,F
Girls,51.94,11,Sammie Thompson,Lometa,49.49,63.5,34.02,72.57,170.1,Single-ply,SBD,F
Girls,51.94,12,Carlee Bradley,Troy,50.39,49.9,27.22,74.84,151.95,Single-ply,SBD,F
Girls,51.94,13,Katelynn Choate,Anson,48.94,52.16,20.41,56.7,129.27,Single-ply,SBD,F
Girls,56.02,1,Aliyah Galvan,Bangs,55.7,108.86,68.04,115.67,292.57,Single-ply,SBD,F
Girls,56.02,2,Aryan Gober,Meridian,55.93,99.79,45.36,117.93,263.08,Single-ply,SBD,F
Girls,56.02,3,Chloe Coates,Stephenville,55.47,99.79,56.7,99.79,256.28,Single-ply,SBD,F
Girls,56.02,4,Destiny Garza,Clyde,53.21,95.25,47.63,104.33,247.21,Single-ply,SBD,F
Girls,56.02,5,Jayde Burkett,Millsap,55.07,90.72,40.82,102.06,233.6,Single-ply,SBD,F
Girls,56.02,6,Maddie Brenner,Millsap,55.57,81.65,45.36,90.72,217.72,Single-ply,SBD,F
Girls,56.02,7,Maci Jones,Lampasas,55.07,79.38,36.29,92.99,208.65,Single-ply,SBD,F
Girls,56.02,8,Emma Brown,Tolar,52.39,74.84,40.82,86.18,201.85,Single-ply,SBD,F
Girls,56.02,9,Madi Hicks,Meridian,52.75,63.5,40.82,90.72,195.04,Single-ply,SBD,F
Girls,56.02,10,Kaylan Rucker,Lampasas,53.43,79.38,29.48,86.18,195.04,Single-ply,SBD,F
Girls,56.02,11,Brianna Lewellen,Lampasas,55.43,74.84,27.22,79.38,181.44,Single-ply,SBD,F
Girls,56.02,12,Katie Ebeling,Stephenville,55.2,47.63,29.48,70.31,147.42,Single-ply,SBD,F
Girls,56.02,13,Myra Arrieta,Anson,54.48,56.7,20.41,61.23,138.35,Single-ply,SBD,F
Girls,56.02,DQ,Cameron Mayo,Stephenville,55.7,,,,,Single-ply,SBD,F
Girls,60.1,1,Nikayla Waller,Lometa,56.84,104.33,58.97,127.01,290.3,Single-ply,SBD,F
Girls,60.1,2,Ariawna Burt,Stephenville,59.83,115.67,58.97,102.06,276.69,Single-ply,SBD,F
Girls,60.1,3,Jessica Leija,Stephenville,59.83,106.59,56.7,111.13,274.42,Single-ply,SBD,F
Girls,60.1,4,April Hahn,Troy,59.19,95.25,52.16,111.13,258.55,Single-ply,SBD,F
Girls,60.1,5,Savanah Early,Clyde,57.79,81.65,52.16,99.79,233.6,Single-ply,SBD,F
Girls,60.1,6,Jordyn Dabelstein,Millsap,59.06,81.65,29.48,81.65,192.78,Single-ply,SBD,F
Girls,60.1,7,Jayce Taylor,Gordon,58.56,54.43,27.22,74.84,156.49,Single-ply,SBD,F
Girls,67.36,1,Alerah Turpin,Millsap,64.59,136.08,68.04,131.54,335.66,Single-ply,SBD,F
Girls,67.36,2,Victoria Fincannon,Hico,62.78,124.74,56.7,111.13,292.57,Single-ply,SBD,F
Girls,67.36,3,McKenzie Hughes,Bangs,62.01,113.4,47.63,127.01,288.03,Single-ply,SBD,F
Girls,67.36,4,Leslie O'Dell,Clyde,64.95,117.93,49.9,120.2,288.03,Single-ply,SBD,F
Girls,67.36,5,Haley Rogers,Clyde,66.09,104.33,61.23,113.4,278.96,Single-ply,SBD,F
Girls,67.36,6,Savannah Ramirez,Troy,66.27,102.06,54.43,122.47,278.96,Single-ply,SBD,F
Girls,67.36,7,Dominique Rico,Hico,67.04,95.25,43.09,113.4,251.74,Single-ply,SBD,F
Girls,67.36,8,Gerizim Alvarez,Lampasas,64.23,86.18,52.16,102.06,240.4,Single-ply,SBD,F
Girls,67.36,9,Taylor Cotton,Millsap,61.1,92.99,36.29,104.33,233.6,Single-ply,SBD,F
Girls,67.36,10,Madison Holloway,Clyde,61.37,83.91,54.43,90.72,229.06,Single-ply,SBD,F
Girls,67.36,11,Chrysann Ward,Moody,64.36,77.11,40.82,92.99,210.92,Single-ply,SBD,F
Girls,67.36,12,Angelina Burciaga,Godley,64.18,83.91,36.29,79.38,199.58,Single-ply,SBD,F
Girls,67.36,13,Veronica Rodriguez,Dublin,62.51,77.11,34.02,79.38,190.51,Single-ply,SBD,F
Girls,67.36,14,Elaine Puente,Gordon,61.1,74.84,29.48,81.65,185.97,Single-ply,SBD,F
Girls,67.36,15,Jordan Boles,Lometa,66.18,61.23,34.02,79.38,174.63,Single-ply,SBD,F
Girls,67.36,DQ,Haley Kilcrease,Meridian,60.33,79.38,43.09,,,Single-ply,SBD,F
Girls,67.36,DQ,Kinlee Kollaja,Moody,61.87,,,,,Single-ply,SBD,F
Girls,75.07,1,Hannah Phelps,Hico,74.3,142.88,74.84,129.27,347,Single-ply,SBD,F
Girls,75.07,2,Kenzie Mayes,Stephenville,71.94,113.4,70.31,113.4,297.1,Single-ply,SBD,F
Girls,75.07,3,Alex Turley,Moody,69.72,111.13,68.04,115.67,294.84,Single-ply,SBD,F
Girls,75.07,4,Esmeralda Alonso,Stephenville,70.76,113.4,52.16,122.47,288.03,Single-ply,SBD,F
Girls,75.07,5,Lea Wagner,Godley,69.85,113.4,52.16,120.2,285.76,Single-ply,SBD,F
Girls,75.07,6,Kenzie Baker,Bangs,70.72,111.13,49.9,115.67,276.69,Single-ply,SBD,F
Girls,75.07,7,Sydney Gollihar,Clyde,67.72,92.99,56.7,104.33,254.01,Single-ply,SBD,F
Girls,75.07,8,Margarita Torres,Troy,71.08,97.52,40.82,97.52,235.87,Single-ply,SBD,F
Girls,75.07,9,Nancy Valdez,Stephenville,70.62,92.99,38.56,102.06,233.6,Single-ply,SBD,F
Girls,75.07,10,Makayla Fletcher,Hico,69.85,79.38,43.09,90.72,213.19,Single-ply,SBD,F
Girls,75.07,DQ,Zoie Acker,Hico,70.4,65.77,49.9,,,Single-ply,SBD,F
Girls,75.07,DQ,Taylor Williams,Stephenville,73.26,68.04,,,,Single-ply,SBD,F
Girls,82.33,1,Cydney Morgan,Hico,79.88,158.76,81.65,145.15,385.55,Single-ply,SBD,F
Girls,82.33,2,Mallory Gunter,Stephenville,82.15,136.08,79.38,129.27,344.73,Single-ply,SBD,F
Girls,82.33,3,Ariana Rosotti,Stephenville,79.7,102.06,70.31,133.81,306.17,Single-ply,SBD,F
Girls,82.33,4,Lacie Foster,Godley,77.34,113.4,54.43,102.06,269.89,Single-ply,SBD,F
Girls,82.33,5,Mia Martel,Lampasas,75.57,108.86,54.43,102.06,265.35,Single-ply,SBD,F
Girls,82.33,6,Ranisha Pickett,Hico,76.52,113.4,40.82,102.06,256.28,Single-ply,SBD,F
Girls,82.33,7,Becca Burney,Millsap,78.7,104.33,47.63,102.06,254.01,Single-ply,SBD,F
Girls,82.33,8,Flor Moncoda,Stephenville,81.51,97.52,45.36,102.06,244.94,Single-ply,SBD,F
Girls,82.33,9,Madison Kajs,Lampasas,81.6,108.86,36.29,97.52,242.67,Single-ply,SBD,F
Girls,82.33,10,Jakelin Avila,Troy,77.88,90.72,36.29,108.86,235.87,Single-ply,SBD,F
Girls,82.33,11,Ella Frederick,Dublin,79.15,79.38,36.29,102.06,217.72,Single-ply,SBD,F
Girls,82.33,12,Jasmine Wheeler,Clyde,78.43,79.38,43.09,90.72,213.19,Single-ply,SBD,F
Girls,82.33,13,Caris Howell,Stephenville,78.83,83.91,40.82,86.18,210.92,Single-ply,SBD,F
Girls,82.33,14,McKynna Barrick,Moody,78.47,61.23,43.09,65.77,170.1,Single-ply,SBD,F
Girls,90.04,1,Jessica Ebeling,Stephenville,87,181.44,83.91,147.42,412.77,Single-ply,SBD,F
Girls,90.04,2,Lexia Arrieta,Anson,88.72,124.74,52.16,142.88,319.78,Single-ply,SBD,F
Girls,90.04,3,Marian Arguijo,Moody,86.36,120.2,65.77,124.74,310.71,Single-ply,SBD,F
Girls,90.04,4,Mari Sanchez,Hico,88.22,127.01,52.16,113.4,292.57,Single-ply,SBD,F
Girls,90.04,5,Addison DeBerry,Godley,83.01,113.4,52.16,122.47,288.03,Single-ply,SBD,F
Girls,90.04,6,Naeli Torres,Troy,84.14,99.79,47.63,104.33,251.74,Single-ply,SBD,F
Girls,90.04,7,Jollie Mays,Stephenville,85.37,115.67,43.09,90.72,249.48,Single-ply,SBD,F
Girls,90.04,8,Kaitlyn Keener,Lampasas,88.59,79.38,47.63,106.59,233.6,Single-ply,SBD,F
Girls,100.02,1,Maggie Conlon,Troy,92.8,188.24,111.13,156.49,455.86,Single-ply,SBD,F
Girls,100.02,2,Carmela Guevara,Tolar,90.36,158.76,88.45,149.69,396.89,Single-ply,SBD,F
Girls,100.02,3,Elsa Galvan,Anson,93.58,165.56,65.77,142.88,374.21,Single-ply,SBD,F
Girls,100.02,4,Jae Dea DeBusk,Clyde,95.71,147.42,72.57,147.42,367.41,Single-ply,SBD,F
Girls,100.02,5,Aubreyanna Ziegler,Stephenville,90.63,145.15,61.23,149.69,356.07,Single-ply,SBD,F
Girls,100.02,6,Hailey Hambrice,Godley,97.89,149.69,61.23,136.08,347,Single-ply,SBD,F
Girls,100.02,7,Kyleigh Mach,Moody,92.26,108.86,74.84,102.06,285.76,Single-ply,SBD,F
Girls,100.02,8,Sarah Bowden,Lampasas,90.45,97.52,47.63,115.67,260.82,Single-ply,SBD,F
Girls,100.02,DQ,Shumara Finley,Bangs,96.12,133.81,,,,Single-ply,SBD,F
Girls,117.71,1,Brianna Hill,Hamilton,109.77,142.88,68.04,142.88,353.8,Single-ply,SBD,F
Girls,117.71,2,Norma Hernandez,Stephenville,100.74,147.42,74.84,129.27,351.53,Single-ply,SBD,F
Girls,117.71,3,Bethany Chavarria,Troy,110.18,124.74,47.63,115.67,288.03,Single-ply,SBD,F
Girls,117.71,4,Lila Walling,Lampasas,106.68,104.33,54.43,113.4,272.16,Single-ply,SBD,F
Girls,117.71,5,Amber Jackson,Stephenville,110.95,34.02,45.36,63.5,142.88,Single-ply,SBD,F
Girls,117.71+,1,Deonshae Milliner,Moody,137.08,183.7,92.99,149.69,426.38,Single-ply,SBD,F
Girls,117.71+,2,Lorraine Herd,Hamilton,134.67,142.88,63.5,140.61,347,Single-ply,SBD,F
