Division,WeightClassKg,Place,Name,Team,BodyweightKg,Best3SquatKg,Best3BenchKg,Best3DeadliftKg,TotalKg,Equipment,Event,Sex
Boys,51.71,1,Adrian Herrera,Yoakum,51.07,138.35,74.84,127.01,340.19,Single-ply,SBD,M
Boys,51.71,2,Benny Lara,Victoria West,50.98,136.08,61.23,129.27,326.59,Single-ply,SBD,M
Boys,51.71,3,Aspen Whitstine,Port Lavaca Calhoun,51.35,102.06,70.31,108.86,281.23,Single-ply,SBD,M
Boys,55.79,1,Jesus Rios,Palacios,54.7,136.08,111.13,179.17,426.38,Single-ply,SBD,M
Boys,55.79,2,Cody Faust,Yoakum,53.89,133.81,77.11,136.08,347,Single-ply,SBD,M
Boys,55.79,3,Trevor Lewis,Port Lavaca Calhoun,53.07,88.45,72.57,113.4,274.42,Single-ply,SBD,M
Boys,55.79,4,Bailey Parrett,Yorktown,54.25,83.91,58.97,102.06,244.94,Single-ply,SBD,M
Boys,55.79,DQ,Moc Moo,Port Lavaca Calhoun,55.79,,,,,Single-ply,SBD,M
Boys,55.79,DQ,Lamar Turner,Edna,55.61,131.54,,142.88,,Single-ply,SBD,M
Boys,59.87,1,Jarrett Burford,Port Lavaca Calhoun,58.69,192.78,120.2,188.24,501.22,Single-ply,SBD,M
Boys,59.87,2,Tyler Le,Palacios,57.61,136.08,74.84,174.63,385.55,Single-ply,SBD,M
Boys,59.87,3,Cy Strieber,Yorktown,59.78,122.47,77.11,156.49,356.07,Single-ply,SBD,M
Boys,59.87,4,Alban Valero,San Antonio Brooks Academy,59.87,120.2,68.04,138.35,326.59,Single-ply,SBD,M
Boys,59.87,5,Dakota Moreno,Vanderbilt Industrial,59.87,102.06,65.77,138.35,306.17,Single-ply,SBD,M
Boys,59.87,6,Gabriel García,Yoakum,58.42,129.27,72.57,102.06,303.91,Single-ply,SBD,M
Boys,59.87,7,Trey Chavez,Palacios,58.33,106.59,65.77,129.27,301.64,Single-ply,SBD,M
Boys,59.87,8,Hunter Long,San Antonio Brooks Academy,56.79,83.91,68.04,142.88,294.84,Single-ply,SBD,M
Boys,59.87,9,Michael Foster,Edna,56.79,88.45,58.97,120.2,267.62,Single-ply,SBD,M
Boys,59.87,DQ,Michael VanHouten,Edna,59.87,,,,,Single-ply,SBD,M
Boys,59.87,DQ,David Nunez,Edna,59.87,,,,,Single-ply,SBD,M
Boys,59.87,DQ,Joseph Garza,Port Lavaca Calhoun,59.87,,,,,Single-ply,SBD,M
Boys,59.87,DQ,Erick Cruz,Victoria St. Joseph,59.87,,,,,Single-ply,SBD,M
Boys,67.13,1,Beau Burns,Victoria West,67.13,185.97,106.59,181.44,474,Single-ply,SBD,M
Boys,67.13,2,Abraham Ruiz,Victoria East,66.04,167.83,106.59,149.69,424.11,Single-ply,SBD,M
Boys,67.13,3,Samuel Bonorden,Victoria St. Joseph,64.23,158.76,90.72,170.1,419.57,Single-ply,SBD,M
Boys,67.13,4,Michael Chomour,Yoakum,63.78,158.76,95.25,161.03,415.04,Single-ply,SBD,M
Boys,67.13,5,José Pérez,Port Lavaca Calhoun,65.68,165.56,102.06,145.15,412.77,Single-ply,SBD,M
Boys,67.13,6,Eric Callaway,Victoria West,66.41,161.03,95.25,156.49,412.77,Single-ply,SBD,M
Boys,67.13,7,Corban Ramos,Victoria East,66.5,136.08,70.31,163.29,369.68,Single-ply,SBD,M
Boys,67.13,8,Esai Gonzalez,Port Lavaca Calhoun,65.77,127.01,88.45,147.42,362.87,Single-ply,SBD,M
Boys,67.13,9,Denver Evans,Yoakum,60.78,136.08,72.57,147.42,356.07,Single-ply,SBD,M
Boys,67.13,10,Daniel Taylor,Goliad,63.32,122.47,65.77,124.74,312.98,Single-ply,SBD,M
Boys,67.13,11,Jeremiah Good,Yorktown,64.77,115.67,61.23,117.93,294.84,Single-ply,SBD,M
Boys,67.13,DQ,Tre'vion Green,Victoria West,67.13,,,,,Single-ply,SBD,M
Boys,67.13,DQ,Daniel Martinez,Port Lavaca Calhoun,67.13,,,,,Single-ply,SBD,M
Boys,67.13,DQ,Chris Eastwood,Goliad,67.13,,,,,Single-ply,SBD,M
Boys,74.84,1,Hunter Dollery,Victoria West,74.75,183.7,111.13,192.78,487.61,Single-ply,SBD,M
Boys,74.84,2,Logan Muehlstein,Goliad,72.48,165.56,99.79,199.58,464.93,Single-ply,SBD,M
Boys,74.84,3,Carson Berger,Vanderbilt Industrial,72.67,165.56,113.4,176.9,455.86,Single-ply,SBD,M
Boys,74.84,4,Davantee Herron,Victoria East,71.03,158.76,102.06,183.7,444.52,Single-ply,SBD,M
Boys,74.84,5,Aj Carter,Victoria West,71.3,167.83,92.99,183.7,444.52,Single-ply,SBD,M
Boys,74.84,6,Daniel Santillan,Vanderbilt Industrial,68.04,165.56,97.52,176.9,439.98,Single-ply,SBD,M
Boys,74.84,7,Kory Taylor,Victoria West,72.3,147.42,92.99,188.24,428.64,Single-ply,SBD,M
Boys,74.84,8,Sergiio Cervantes,Victoria West,74.84,142.88,95.25,140.61,378.75,Single-ply,SBD,M
Boys,74.84,9,Morgan Segovia,Palacios,68.86,151.95,83.91,131.54,367.41,Single-ply,SBD,M
Boys,74.84,10,Elijah Edwards,Palacios,74.75,124.74,81.65,158.76,365.14,Single-ply,SBD,M
Boys,74.84,11,Trey Ingram,Goliad,70.58,124.74,72.57,142.88,340.19,Single-ply,SBD,M
Boys,74.84,12,Liam Porr,Victoria St. Joseph,71.4,129.27,65.77,138.35,333.39,Single-ply,SBD,M
Boys,74.84,13,Manny Salazar,Refugio,73.03,92.99,70.31,151.95,315.25,Single-ply,SBD,M
Boys,74.84,14,Brandon Turner,Victoria West,74.12,124.74,86.18,102.06,312.98,Single-ply,SBD,M
Boys,74.84,15,Dalton Dornburg,Goliad,72.21,122.47,65.77,102.06,290.3,Single-ply,SBD,M
Boys,74.84,16,Wesley Boone,Edna,74.57,95.25,72.57,102.06,269.89,Single-ply,SBD,M
Boys,74.84,17,Gilibaldo Garcia,San Antonio Brooks Academy,69.31,88.45,49.9,106.59,244.94,Single-ply,SBD,M
Boys,74.84,DQ,Cesar Jimenez #1,Palacios,74.84,,,,,Single-ply,SBD,M
Boys,74.84,DQ,Tommy Soto,Refugio,74.84,,,,,Single-ply,SBD,M
Boys,74.84,DQ,Chayce Grevey,Victoria West,74.84,,,,,Single-ply,SBD,M
Boys,74.84,DQ,Isaai Ortega,San Antonio Brooks Academy,72.76,,36.29,102.06,,Single-ply,SBD,M
Boys,82.1,1,Travis Dibble,Victoria West,81.65,204.12,124.74,226.8,555.65,Single-ply,SBD,M
Boys,82.1,2,Edward Rubio,Goliad,79.83,195.04,104.33,229.06,528.44,Single-ply,SBD,M
Boys,82.1,3,Ethan Brown,Vanderbilt Industrial,77.84,190.51,124.74,192.78,508.02,Single-ply,SBD,M
Boys,82.1,4,Shavar Richard,Port Lavaca Calhoun,78.47,183.7,111.13,201.85,496.68,Single-ply,SBD,M
Boys,82.1,5,Qashaun Bryant,Victoria East,77.11,195.04,106.59,181.44,483.08,Single-ply,SBD,M
Boys,82.1,6,Anthony McGuill,Refugio,78.74,181.44,104.33,192.78,478.54,Single-ply,SBD,M
Boys,82.1,7,Ken'twuan Freeman,Victoria West,78.83,192.78,102.06,181.44,476.27,Single-ply,SBD,M
Boys,82.1,8,Payton Sanchez,Port Lavaca Calhoun,80.2,172.37,106.59,176.9,455.86,Single-ply,SBD,M
Boys,82.1,9,Dylan Moeller,Victoria East,81.19,163.29,90.72,199.58,453.59,Single-ply,SBD,M
Boys,82.1,10,Daniel Guillen,Victoria East,80.2,170.1,92.99,165.56,428.64,Single-ply,SBD,M
Boys,82.1,11,Jesse Lopez,Port Lavaca Calhoun,75.66,174.63,92.99,158.76,426.38,Single-ply,SBD,M
Boys,82.1,12,Xavier Rivera,Port Lavaca Calhoun,78.11,154.22,106.59,158.76,419.57,Single-ply,SBD,M
Boys,82.1,13,Seth Garrett,Victoria West,82.1,142.88,92.99,183.7,419.57,Single-ply,SBD,M
Boys,82.1,14,Isaiah Murray,San Antonio Brooks Academy,79.47,145.15,111.13,147.42,403.7,Single-ply,SBD,M
Boys,82.1,15,Adam Nguyen,Palacios,82.01,106.59,68.04,181.44,356.07,Single-ply,SBD,M
Boys,82.1,16,Gabriel Hernandez,Victoria East,82.1,165.56,,165.56,331.12,Single-ply,SD,M
Boys,82.1,17,Carlos Romero #2,Edna,77.47,106.59,74.84,147.42,328.85,Single-ply,SBD,M
Boys,82.1,18,Jerry Alvarez,Yorktown,78.11,115.67,74.84,136.08,326.59,Single-ply,SBD,M
Boys,82.1,19,Hector Andres,Edna,76.02,108.86,63.5,124.74,297.1,Single-ply,SBD,M
Boys,82.1,20,Kaleb Henning,Refugio,78.56,106.59,74.84,113.4,294.84,Single-ply,SBD,M
Boys,82.1,21,Bryce Overton,Palacios,82.1,99.79,,,99.79,Single-ply,S,M
Boys,82.1,DQ,Gus Muller,Edna,82.1,,,,,Single-ply,S,M
Boys,82.1,DQ,Dominic Busby,Vanderbilt Industrial,82.1,,,,,Single-ply,S,M
Boys,82.1,DQ,Henry Molina,Palacios,82.1,,,,,Single-ply,S,M
Boys,82.1,DQ,Brian Metting,Yorktown,82.1,,,,,Single-ply,S,M
Boys,82.1,DQ,Colten Janik,Yoakum,82.1,,,,,Single-ply,S,M
Boys,89.81,1,Oziel Rios,Palacios,85.37,226.8,170.1,249.48,646.37,Single-ply,SBD,M
Boys,89.81,2,Eli Milner,Vanderbilt Industrial,86.45,226.8,142.88,226.8,596.47,Single-ply,SBD,M
Boys,89.81,3,David Garza,Palacios,83.55,192.78,108.86,206.38,508.02,Single-ply,SBD,M
Boys,89.81,4,Ricardo Camarillo,Yoakum,87.82,192.78,133.81,181.44,508.02,Single-ply,SBD,M
Boys,89.81,5,Eric Luck,Victoria East,89.81,188.24,136.08,181.44,505.76,Single-ply,SBD,M
Boys,89.81,6,Rene Orsonia,Port Lavaca Calhoun,83.91,190.51,120.2,190.51,501.22,Single-ply,SBD,M
Boys,89.81,7,Seth Alvarez,Palacios,84.46,213.19,92.99,174.63,480.81,Single-ply,SBD,M
Boys,89.81,8,Jj Figueroa,Palacios,85.37,167.83,95.25,210.92,474,Single-ply,SBD,M
Boys,89.81,9,Dre Littles,Victoria West,85,174.63,99.79,181.44,455.86,Single-ply,SBD,M
Boys,89.81,10,Andreas Cortez,San Antonio Brooks Academy,86.64,133.81,86.18,136.08,356.07,Single-ply,SBD,M
Boys,89.81,11,Colee Callaway,Edna,89.81,74.84,49.9,97.52,222.26,Single-ply,SBD,M
Boys,89.81,DQ,Jacob Archuletta,Yorktown,89.81,,,,,Single-ply,SBD,M
Boys,89.81,DQ,James Johnson,Victoria East,88.9,226.8,124.74,226.8,,Single-ply,SBD,M
Boys,89.81,DQ,Ryan Gasch,Yoakum,89.81,,,104.33,,Single-ply,SBD,M
Boys,99.79,1,Dylan Esquivel,Victoria West,92.08,208.65,142.88,244.94,596.47,Single-ply,SBD,M
Boys,99.79,2,Bobby Morris,Victoria East,92.8,229.06,124.74,231.33,585.13,Single-ply,SBD,M
Boys,99.79,3,Michael de la Garza,Victoria West,97.98,226.8,136.08,222.26,585.13,Single-ply,SBD,M
Boys,99.79,4,Curtis Nix,Victoria East,92.71,210.92,124.74,231.33,566.99,Single-ply,SBD,M
Boys,99.79,5,Sean Bastian,Vanderbilt Industrial,97.61,215.46,140.61,199.58,555.65,Single-ply,SBD,M
Boys,109.77,6,Cody Park,Goliad,99.97,233.6,92.99,208.65,535.24,Single-ply,SBD,M
Boys,99.79,7,Tristan Caballero,Yoakum,97.79,192.78,142.88,179.17,514.83,Single-ply,SBD,M
Boys,99.79,8,Lain Hermes,Goliad,98.16,204.12,120.2,190.51,514.83,Single-ply,SBD,M
Boys,99.79,9,Jade Pena,Victoria St. Joseph,94.44,170.1,140.61,181.44,492.15,Single-ply,SBD,M
Boys,99.79,10,Isaih Cardenas,Victoria West,99.16,185.97,88.45,183.7,458.13,Single-ply,SBD,M
Boys,99.79,11,Keve Franklin,Goliad,92.71,165.56,113.4,158.76,437.72,Single-ply,SBD,M
Boys,99.79,12,Jacob Jalomo,Edna,98.07,142.88,83.91,170.1,396.89,Single-ply,SBD,M
Boys,99.79,13,Caleb Gloor,Victoria St. Joseph,95.89,136.08,83.91,165.56,385.55,Single-ply,SBD,M
Boys,99.79,DQ,Nathan London,Yorktown,99.79,,,,,Single-ply,SBD,M
Boys,99.79,DQ,Kj Shultz,Yorktown,99.79,,,,,Single-ply,SBD,M
Boys,109.77,1,Paul Esparza,San Antonio Brooks Academy,106.96,213.19,113.4,222.26,548.85,Single-ply,SBD,M
Boys,109.77,2,Devin Tagle,Refugio,105.96,197.31,156.49,183.7,537.51,Single-ply,SBD,M
Boys,109.77,3,Brent Karnowski,Victoria East,104.6,204.12,120.2,190.51,514.83,Single-ply,SBD,M
Boys,109.77,4,Fabian Vargas,Goliad,106.32,183.7,133.81,179.17,496.68,Single-ply,SBD,M
Boys,109.77,5,Reagan Billings,Yorktown,105.14,183.7,99.79,183.7,467.2,Single-ply,SBD,M
Boys,109.77,6,Efrain Guerra,Edna,103.87,133.81,102.06,154.22,390.09,Single-ply,SBD,M
Boys,109.77,7,Dylan Ohrt,Victoria West,105.51,154.22,,151.95,306.17,Single-ply,SD,M
Boys,109.77,8,Lamar Rodriguez,Goliad,105.05,172.37,83.91,,256.28,Single-ply,SB,M
Boys,109.77,DQ,Kevin Carpenter,Palacios,109.77,,,,,Single-ply,SB,M
Boys,109.77,DQ,Eddie Garcia,Port Lavaca Calhoun,109.77,,,,,Single-ply,SB,M
Boys,124.74,1,Dylan Kallus,Edna,123.2,260.82,113.4,215.46,589.67,Single-ply,SBD,M
Boys,124.74,2,Christian Mascorro,Refugio,110.77,215.46,122.47,201.85,539.77,Single-ply,SBD,M
Boys,124.74,3,Justin Broll,Yorktown,114.76,181.44,117.93,170.1,469.47,Single-ply,SBD,M
Boys,124.74,4,Steven Rankin,Goliad,115.21,188.24,79.38,133.81,401.43,Single-ply,SBD,M
Boys,124.74,5,Emilo Vargas,Goliad,118.12,147.42,90.72,154.22,392.36,Single-ply,SBD,M
Boys,124.74,6,Trevor Gloor,Victoria St. Joseph,114.21,138.35,88.45,136.08,362.87,Single-ply,SBD,M
Boys,124.74,DQ,Evan Krause,Yorktown,124.74,,,,,Single-ply,SBD,M
Boys,124.74,DQ,Horacio Salto,San Antonio Brooks Academy,124.74,,,,,Single-ply,SBD,M
Boys,124.74,DQ,Brady Vickery,Vanderbilt Industrial,124.74,,,,,Single-ply,SBD,M
Boys,124.74+,1,Wyatt Neuman,Edna,138.89,188.24,95.25,188.24,471.74,Single-ply,SBD,M
Boys,124.74+,2,Jake Carr,Palacios,132,147.42,102.06,147.42,396.89,Single-ply,SBD,M
Boys,124.74+,DQ,Malik Brown,Refugio,125.19,,,,,Single-ply,SBD,M
