Division,WeightClassKg,Place,Name,Team,BodyweightKg,Best3SquatKg,Best3BenchKg,Best3DeadliftKg,TotalKg,Equipment,Event,Sex
Boys,51.71,1,Joey Longoria,Pearsall,51.26,154.22,77.11,149.69,381.02,Single-ply,SBD,M
Boys,51.71,2,Ricardo Martinez,Pearsall,50.8,124.74,68.04,117.93,310.71,Single-ply,SBD,M
Boys,51.71,3,John Acosta,Crystal City,51.57,111.13,63.5,129.27,303.91,Single-ply,SBD,M
Boys,51.71,4,Francisco Villarreal,Laredo Nixon,51.48,79.38,72.57,117.93,269.89,Single-ply,SBD,M
Boys,51.71,DQ,Mark Jaquez,Uvalde,51.26,140.61,,,,Single-ply,SBD,M
Boys,55.79,1,Tommy Huerta,Carrizo Springs,55.34,161.03,83.91,154.22,399.16,Single-ply,SBD,M
Boys,55.79,2,Orlando Mata,Crystal City,55.07,117.93,56.7,145.15,319.78,Single-ply,SBD,M
Boys,55.79,3,Jesus Del La Rosa,Laredo Nixon,55.79,102.06,49.9,124.74,276.69,Single-ply,SBD,M
Boys,55.79,DQ,Alexander Comparan,Laredo Nixon,54.88,102.06,,,,Single-ply,SBD,M
Boys,59.87,1,Virgil Luna,Crystal City,58.38,142.88,72.57,156.49,371.95,Single-ply,SBD,M
Boys,59.87,2,Jerry Martinez,Uvalde,58.97,122.47,63.5,129.27,315.25,Single-ply,SBD,M
Boys,59.87,3,Mark Mancha,Uvalde,58.51,95.25,61.23,124.74,281.23,Single-ply,SBD,M
Boys,67.13,1,Orlando Gutierrez,Crystal City,66.77,272.16,106.59,238.14,616.89,Single-ply,SBD,M
Boys,67.13,2,Julian Rico,Somerset,66.22,238.14,145.15,210.92,594.21,Single-ply,SBD,M
Boys,67.13,3,Shayne Medrano,Uvalde,66.9,165.56,88.45,183.7,437.72,Single-ply,SBD,M
Boys,67.13,4,Angel Rodríguez,Crystal City,66.81,183.7,83.91,161.03,428.64,Single-ply,SBD,M
Boys,67.13,5,Alex De La Rosa,Dilley,67.13,154.22,106.59,158.76,419.57,Single-ply,SBD,M
Boys,67.13,6,Luis Guerra,Laredo Nixon,66,151.95,81.65,142.88,376.48,Single-ply,SBD,M
Boys,67.13,7,Ivan Diaz,Laredo Nixon,66,124.74,72.57,154.22,351.53,Single-ply,SBD,M
Boys,67.13,8,EJ Chavez,Uvalde,61.69,117.93,74.84,127.01,319.78,Single-ply,SBD,M
Boys,67.13,DQ,Zack Lambert,Uvalde,67.13,,,,,Single-ply,SBD,M
Boys,74.84,1,Mario Cabrera,Somerset,70.53,213.19,124.74,210.92,548.85,Single-ply,SBD,M
Boys,74.84,2,Eden Puentes,Pearsall,74.84,190.51,108.86,210.92,510.29,Single-ply,SBD,M
Boys,74.84,3,Richard Munoz,Carrizo Springs,70.31,192.78,124.74,174.63,492.15,Single-ply,SBD,M
Boys,74.84,4,Carlos Gonzales,Dilley,74.84,204.12,86.18,195.04,485.34,Single-ply,SBD,M
Boys,74.84,5,Joey Trujillo,Carrizo Springs,74.84,170.1,97.52,208.65,476.27,Single-ply,SBD,M
Boys,74.84,6,Fabian Santos,Dilley,74.39,183.7,83.91,204.12,471.74,Single-ply,SBD,M
Boys,74.84,7,Martin Rios,Crystal City,73.21,183.7,92.99,188.24,464.93,Single-ply,SBD,M
Boys,74.84,8,Martin Lopez,Crystal City,71.58,192.78,97.52,163.29,453.59,Single-ply,SBD,M
Boys,74.84,9,Joey Uretta,Carrizo Springs,68.04,151.95,72.57,190.51,415.04,Single-ply,SBD,M
Boys,74.84,10,Ulrich Kalthoff,Pearsall,74.84,151.95,97.52,165.56,415.04,Single-ply,SBD,M
Boys,74.84,11,Ryan Martel,Dilley,71.21,147.42,72.57,147.42,367.41,Single-ply,SBD,M
Boys,74.84,12,Miguel Madrigal,Laredo Nixon,72.8,124.74,63.5,165.56,353.8,Single-ply,SBD,M
Boys,74.84,DQ,Nathaniel Mena,Somerset,72.57,147.42,,,,Single-ply,SBD,M
Boys,74.84,DQ,Gabriel Martiinez,Pearsall,70.76,190.51,,,,Single-ply,SBD,M
Boys,74.84,DQ,Daniel Almedia,Uvalde,74.39,158.76,95.25,,,Single-ply,SBD,M
Boys,82.1,1,Gavin Vara,Uvalde,81.42,231.33,113.4,247.21,591.94,Single-ply,SBD,M
Boys,82.1,2,Ray Leal,Pearsall,82.1,181.44,104.33,217.72,503.49,Single-ply,SBD,M
Boys,82.1,3,Isaac Garcia,Crystal City,81.24,192.78,108.86,188.24,489.88,Single-ply,SBD,M
Boys,82.1,4,Damien Longoria,Pearsall,78.93,170.1,99.79,199.58,469.47,Single-ply,SBD,M
Boys,82.1,5,Andrew Sosa,Laredo Nixon,82.1,158.76,88.45,181.44,428.64,Single-ply,SBD,M
Boys,82.1,6,Domingo Mendiola,Laredo Nixon,78.24,124.74,90.72,170.1,385.55,Single-ply,SBD,M
Boys,82.1,7,Gilbert Martinez,Crystal City,81.51,95.25,45.36,113.4,254.01,Single-ply,SBD,M
Boys,89.81,1,Josiah Marquez,Pearsall,87.09,251.74,124.74,235.87,612.35,Single-ply,SBD,M
Boys,89.81,2,Geronimo Flores,Somerset,87.09,217.72,106.59,226.8,551.11,Single-ply,SBD,M
Boys,89.81,3,Joel Valdez,Uvalde,89.13,165.56,106.59,190.51,462.66,Single-ply,SBD,M
Boys,89.81,4,George Dominguez,Laredo Nixon,89.36,142.88,77.11,167.83,387.82,Single-ply,SBD,M
Boys,89.81,5,Alomar Ybarra,Somerset,83.01,158.76,77.11,136.08,371.95,Single-ply,SBD,M
Boys,89.81,6,Ace Mata,Crystal City,84.05,92.99,65.77,145.15,303.91,Single-ply,SBD,M
Boys,89.81,DQ,Michael Gonzalez,Somerset,89.81,,,,,Single-ply,SBD,M
Boys,89.81,DQ,Jordan Lara,Knippa,89.81,206.38,133.81,,,Single-ply,SBD,M
Boys,89.81,DQ,Aaron Ramirez,Dilley,89.36,226.8,,,,Single-ply,SBD,M
Boys,99.79,1,Joseph Bueno,Somerset,99.79,306.17,183.7,272.16,762.04,Single-ply,SBD,M
Boys,99.79,2,Michael Gonzales,Somerset,92.08,283.5,165.56,226.8,675.85,Single-ply,SBD,M
Boys,99.79,3,AJ Rodriguez,Carrizo Springs,99.34,224.53,104.33,199.58,528.44,Single-ply,SBD,M
Boys,99.79,4,Max Marchan,Laredo Nixon,94.35,174.63,106.59,175.09,456.31,Single-ply,SBD,M
Boys,99.79,5,Homer Arredondo,Crystal City,97.98,156.49,97.52,151.95,405.97,Single-ply,SBD,M
Boys,99.79,6,Adam Andres,Uvalde,96.16,127.01,81.65,156.49,365.14,Single-ply,SBD,M
Boys,99.79,7,Jay Crain,Dilley,95.25,104.33,63.5,102.06,269.89,Single-ply,SBD,M
Boys,99.79,DQ,Joshua Galvan,Pearsall,95.71,192.78,113.4,,,Single-ply,SBD,M
Boys,109.77,1,Elijah Cortez-Hernandez,Uvalde,106.14,294.84,136.08,226.8,657.71,Single-ply,SBD,M
Boys,109.77,2,Joe Gutierrez,Crystal City,108.41,260.82,111.13,192.78,564.72,Single-ply,SBD,M
Boys,109.77,3,Phillip Valles,Carrizo Springs,104.33,174.63,102.06,197.31,474,Single-ply,SBD,M
Boys,109.77,4,Jabez Madrano,Pearsall,108.86,172.37,95.25,167.83,435.45,Single-ply,SBD,M
Boys,109.77,DQ,Kayden Vega,Dilley,109.77,,,,,Single-ply,SBD,M
Boys,124.74,1,Dustin Dominguez,Dilley,123.38,249.48,149.69,222.26,621.42,Single-ply,SBD,M
Boys,124.74,2,Kollin Meeks,Pearsall,110.22,244.94,111.13,195.04,551.11,Single-ply,SBD,M
Boys,124.74,3,Gayge Maldonado,Somerset,122.92,210.92,142.88,183.7,537.51,Single-ply,SBD,M
Boys,124.74,4,Jj Martinez,Uvalde,122.02,226.8,113.4,195.04,535.24,Single-ply,SBD,M
Boys,124.74,5,Bobby Rocha,Crystal City,122.92,156.49,120.2,172.37,449.06,Single-ply,SBD,M
Boys,124.74,6,Anthony Salas,Laredo Nixon,117.03,151.95,86.18,172.37,410.5,Single-ply,SBD,M
Boys,124.74,7,Adam Alviso,Crystal City,124.33,61.23,43.09,65.77,170.1,Single-ply,SBD,M
Boys,124.74,DQ,Alfonso Mata,Crystal City,123.15,231.33,131.54,131.54,,Single-ply,SBD,M
Boys,124.74+,1,Sebastian Ramirez,Somerset,146.06,260.82,183.7,204.12,648.64,Single-ply,SBD,M
Boys,124.74+,2,Mathew Velasquez,Carrizo Springs,137.21,174.63,92.99,165.56,433.18,Single-ply,SBD,M
Boys,,NS,Brandon Rivas,Pearsall,,,,,,Single-ply,SBD,M
